/home/slawlor/.local/lib/python3.7/site-packages/parton/pdf.py:76: YAMLLoadWarning: calling yaml.load() without Loader=... is deprecated, as the default Loader is unsafe. Please read https://msg.pyyaml.org/load for full details.
  info = yaml.load(f)
/home/slawlor/.local/lib/python3.7/site-packages/parton/pdf.py:109: YAMLLoadWarning: calling yaml.load() without Loader=... is deprecated, as the default Loader is unsafe. Please read https://msg.pyyaml.org/load for full details.
  meta = yaml.load(blocks[0])
/cvmfs/sft.cern.ch/lcg/releases/LCG_97python3/numpy/1.16.4/x86_64-centos7-gcc8-opt/lib/python3.7/site-packages/numpy/lib/histograms.py:810: RuntimeWarning: divide by zero encountered in double_scalars
  norm = n_equal_bins / _unsigned_subtract(last_edge, first_edge)
/cvmfs/sft.cern.ch/lcg/releases/LCG_97python3/numpy/1.16.4/x86_64-centos7-gcc8-opt/lib/python3.7/site-packages/numpy/lib/histograms.py:838: RuntimeWarning: invalid value encountered in multiply
  f_indices = _unsigned_subtract(tmp_a, first_edge) * norm
Traceback (most recent call last):
  File "Condor_Fourier_TestStatistic.py", line 332, in <module>
    Lambda_Bonly_hist = numpy.histogram(statTestFT2[n], bins)
  File "/cvmfs/sft.cern.ch/lcg/releases/LCG_97python3/numpy/1.16.4/x86_64-centos7-gcc8-opt/lib/python3.7/site-packages/numpy/lib/histograms.py", line 844, in histogram
    decrement = tmp_a < bin_edges[indices]
IndexError: index -9223372036854775808 is out of bounds for axis 0 with size 11
