/home/slawlor/.local/lib/python3.7/site-packages/parton/pdf.py:76: YAMLLoadWarning: calling yaml.load() without Loader=... is deprecated, as the default Loader is unsafe. Please read https://msg.pyyaml.org/load for full details.
  info = yaml.load(f)
/home/slawlor/.local/lib/python3.7/site-packages/parton/pdf.py:109: YAMLLoadWarning: calling yaml.load() without Loader=... is deprecated, as the default Loader is unsafe. Please read https://msg.pyyaml.org/load for full details.
  meta = yaml.load(blocks[0])
/cvmfs/sft.cern.ch/lcg/releases/LCG_97python3/scipy/1.3.0/x86_64-centos7-gcc8-opt/lib/python3.7/site-packages/scipy/stats/_continuous_distns.py:7287: RuntimeWarning: divide by zero encountered in true_divide
  self._hpdf = self._hpdf / float(np.sum(self._hpdf * self._hbin_widths))
/cvmfs/sft.cern.ch/lcg/releases/LCG_97python3/scipy/1.3.0/x86_64-centos7-gcc8-opt/lib/python3.7/site-packages/scipy/stats/_continuous_distns.py:7287: RuntimeWarning: invalid value encountered in true_divide
  self._hpdf = self._hpdf / float(np.sum(self._hpdf * self._hbin_widths))
/cvmfs/sft.cern.ch/lcg/releases/LCG_97python3/scipy/1.3.0/x86_64-centos7-gcc8-opt/lib/python3.7/site-packages/scipy/stats/_continuous_distns.py:7288: RuntimeWarning: invalid value encountered in multiply
  self._hcdf = np.cumsum(self._hpdf * self._hbin_widths)
