Using TensorFlow backend.
/home/slawlor/.local/lib/python3.7/site-packages/parton/pdf.py:76: YAMLLoadWarning: calling yaml.load() without Loader=... is deprecated, as the default Loader is unsafe. Please read https://msg.pyyaml.org/load for full details.
  info = yaml.load(f)
/home/slawlor/.local/lib/python3.7/site-packages/parton/pdf.py:109: YAMLLoadWarning: calling yaml.load() without Loader=... is deprecated, as the default Loader is unsafe. Please read https://msg.pyyaml.org/load for full details.
  meta = yaml.load(blocks[0])
WARNING: Logging before flag parsing goes to stderr.
W1229 12:47:55.735904 47589616624832 font_manager.py:1282] findfont: Font family ['cursive'] not found. Falling back to DejaVu Sans.
W1229 12:47:56.351289 47589616624832 backend_pdf.py:1184] 'texgyreheros-regular.otf' can not be subsetted into a Type 3 font. The entire font will be embedded in the output.
W1229 13:07:36.341928 47589616624832 deprecation_wrapper.py:119] From /cvmfs/sft.cern.ch/lcg/views/LCG_97python3/x86_64-centos7-gcc8-opt/lib/python3.7/site-packages/keras/backend/tensorflow_backend.py:74: The name tf.get_default_graph is deprecated. Please use tf.compat.v1.get_default_graph instead.

W1229 13:07:36.434771 47589616624832 deprecation_wrapper.py:119] From /cvmfs/sft.cern.ch/lcg/views/LCG_97python3/x86_64-centos7-gcc8-opt/lib/python3.7/site-packages/keras/backend/tensorflow_backend.py:517: The name tf.placeholder is deprecated. Please use tf.compat.v1.placeholder instead.

W1229 13:07:36.449417 47589616624832 deprecation_wrapper.py:119] From /cvmfs/sft.cern.ch/lcg/views/LCG_97python3/x86_64-centos7-gcc8-opt/lib/python3.7/site-packages/keras/backend/tensorflow_backend.py:4138: The name tf.random_uniform is deprecated. Please use tf.random.uniform instead.

W1229 13:07:36.516720 47589616624832 deprecation_wrapper.py:119] From /cvmfs/sft.cern.ch/lcg/views/LCG_97python3/x86_64-centos7-gcc8-opt/lib/python3.7/site-packages/keras/backend/tensorflow_backend.py:3976: The name tf.nn.max_pool is deprecated. Please use tf.nn.max_pool2d instead.

W1229 13:07:36.948681 47589616624832 deprecation_wrapper.py:119] From /cvmfs/sft.cern.ch/lcg/views/LCG_97python3/x86_64-centos7-gcc8-opt/lib/python3.7/site-packages/keras/backend/tensorflow_backend.py:2018: The name tf.image.resize_nearest_neighbor is deprecated. Please use tf.compat.v1.image.resize_nearest_neighbor instead.

W1229 13:07:37.063433 47589616624832 deprecation_wrapper.py:119] From /cvmfs/sft.cern.ch/lcg/views/LCG_97python3/x86_64-centos7-gcc8-opt/lib/python3.7/site-packages/keras/optimizers.py:790: The name tf.train.Optimizer is deprecated. Please use tf.compat.v1.train.Optimizer instead.

W1229 13:07:37.300163 47589616624832 deprecation_wrapper.py:119] From /cvmfs/sft.cern.ch/lcg/views/LCG_97python3/x86_64-centos7-gcc8-opt/lib/python3.7/site-packages/keras/backend/tensorflow_backend.py:174: The name tf.get_default_session is deprecated. Please use tf.compat.v1.get_default_session instead.

W1229 13:07:37.300708 47589616624832 deprecation_wrapper.py:119] From /cvmfs/sft.cern.ch/lcg/views/LCG_97python3/x86_64-centos7-gcc8-opt/lib/python3.7/site-packages/keras/backend/tensorflow_backend.py:184: The name tf.ConfigProto is deprecated. Please use tf.compat.v1.ConfigProto instead.

2020-12-29 13:07:37.301456: I tensorflow/core/platform/cpu_feature_guard.cc:142] Your CPU supports instructions that this TensorFlow binary was not compiled to use: SSE4.1 SSE4.2
2020-12-29 13:07:37.312445: I tensorflow/core/platform/profile_utils/cpu_utils.cc:94] CPU Frequency: 2800095000 Hz
2020-12-29 13:07:37.315261: I tensorflow/compiler/xla/service/service.cc:168] XLA service 0xa2ad890 executing computations on platform Host. Devices:
2020-12-29 13:07:37.315318: I tensorflow/compiler/xla/service/service.cc:175]   StreamExecutor device (0): <undefined>, <undefined>
2020-12-29 13:07:37.637260: W tensorflow/compiler/jit/mark_for_compilation_pass.cc:1412] (One-time warning): Not using XLA:CPU for cluster because envvar TF_XLA_FLAGS=--tf_xla_cpu_global_jit was not set.  If you want XLA:CPU, either set that envvar, or use experimental_jit_scope to enable XLA:CPU.  To confirm that XLA is active, pass --vmodule=xla_compilation_cache=1 (as a proper command-line flag, not via TF_XLA_FLAGS) or set the envvar XLA_FLAGS=--xla_hlo_profile.
