Using TensorFlow backend.
/home/slawlor/.local/lib/python3.7/site-packages/parton/pdf.py:76: YAMLLoadWarning: calling yaml.load() without Loader=... is deprecated, as the default Loader is unsafe. Please read https://msg.pyyaml.org/load for full details.
  info = yaml.load(f)
/home/slawlor/.local/lib/python3.7/site-packages/parton/pdf.py:109: YAMLLoadWarning: calling yaml.load() without Loader=... is deprecated, as the default Loader is unsafe. Please read https://msg.pyyaml.org/load for full details.
  meta = yaml.load(blocks[0])
WARNING: Logging before flag parsing goes to stderr.
W1223 02:25:56.760033 47546959611072 font_manager.py:1282] findfont: Font family ['cursive'] not found. Falling back to DejaVu Sans.
W1223 02:25:57.281466 47546959611072 backend_pdf.py:1184] 'texgyreheros-regular.otf' can not be subsetted into a Type 3 font. The entire font will be embedded in the output.
W1223 02:40:06.686016 47546959611072 deprecation_wrapper.py:119] From /cvmfs/sft.cern.ch/lcg/views/LCG_97python3/x86_64-centos7-gcc8-opt/lib/python3.7/site-packages/keras/backend/tensorflow_backend.py:74: The name tf.get_default_graph is deprecated. Please use tf.compat.v1.get_default_graph instead.

W1223 02:40:06.736204 47546959611072 deprecation_wrapper.py:119] From /cvmfs/sft.cern.ch/lcg/views/LCG_97python3/x86_64-centos7-gcc8-opt/lib/python3.7/site-packages/keras/backend/tensorflow_backend.py:517: The name tf.placeholder is deprecated. Please use tf.compat.v1.placeholder instead.

W1223 02:40:06.742926 47546959611072 deprecation_wrapper.py:119] From /cvmfs/sft.cern.ch/lcg/views/LCG_97python3/x86_64-centos7-gcc8-opt/lib/python3.7/site-packages/keras/backend/tensorflow_backend.py:4138: The name tf.random_uniform is deprecated. Please use tf.random.uniform instead.

W1223 02:40:06.798790 47546959611072 deprecation_wrapper.py:119] From /cvmfs/sft.cern.ch/lcg/views/LCG_97python3/x86_64-centos7-gcc8-opt/lib/python3.7/site-packages/keras/backend/tensorflow_backend.py:3976: The name tf.nn.max_pool is deprecated. Please use tf.nn.max_pool2d instead.

W1223 02:40:07.199520 47546959611072 deprecation_wrapper.py:119] From /cvmfs/sft.cern.ch/lcg/views/LCG_97python3/x86_64-centos7-gcc8-opt/lib/python3.7/site-packages/keras/backend/tensorflow_backend.py:2018: The name tf.image.resize_nearest_neighbor is deprecated. Please use tf.compat.v1.image.resize_nearest_neighbor instead.

W1223 02:40:07.316370 47546959611072 deprecation_wrapper.py:119] From /cvmfs/sft.cern.ch/lcg/views/LCG_97python3/x86_64-centos7-gcc8-opt/lib/python3.7/site-packages/keras/optimizers.py:790: The name tf.train.Optimizer is deprecated. Please use tf.compat.v1.train.Optimizer instead.

W1223 02:40:07.546772 47546959611072 deprecation_wrapper.py:119] From /cvmfs/sft.cern.ch/lcg/views/LCG_97python3/x86_64-centos7-gcc8-opt/lib/python3.7/site-packages/keras/backend/tensorflow_backend.py:174: The name tf.get_default_session is deprecated. Please use tf.compat.v1.get_default_session instead.

W1223 02:40:07.547205 47546959611072 deprecation_wrapper.py:119] From /cvmfs/sft.cern.ch/lcg/views/LCG_97python3/x86_64-centos7-gcc8-opt/lib/python3.7/site-packages/keras/backend/tensorflow_backend.py:184: The name tf.ConfigProto is deprecated. Please use tf.compat.v1.ConfigProto instead.

2020-12-23 02:40:07.548048: I tensorflow/core/platform/cpu_feature_guard.cc:142] Your CPU supports instructions that this TensorFlow binary was not compiled to use: SSE4.1 SSE4.2 AVX
2020-12-23 02:40:07.558991: I tensorflow/core/platform/profile_utils/cpu_utils.cc:94] CPU Frequency: 2600175000 Hz
2020-12-23 02:40:07.560602: I tensorflow/compiler/xla/service/service.cc:168] XLA service 0x8ae6460 executing computations on platform Host. Devices:
2020-12-23 02:40:07.560645: I tensorflow/compiler/xla/service/service.cc:175]   StreamExecutor device (0): <undefined>, <undefined>
2020-12-23 02:40:07.799868: W tensorflow/compiler/jit/mark_for_compilation_pass.cc:1412] (One-time warning): Not using XLA:CPU for cluster because envvar TF_XLA_FLAGS=--tf_xla_cpu_global_jit was not set.  If you want XLA:CPU, either set that envvar, or use experimental_jit_scope to enable XLA:CPU.  To confirm that XLA is active, pass --vmodule=xla_compilation_cache=1 (as a proper command-line flag, not via TF_XLA_FLAGS) or set the envvar XLA_FLAGS=--xla_hlo_profile.
