000 (215853.798.000) 12/19 01:56:22 Job submitted from host: <10.141.253.27:9618?addrs=10.141.253.27-9618&noUDP&sock=3236953_1928_17>
...
001 (215853.798.000) 12/19 06:48:08 Job executing on host: <10.141.0.185:9618?addrs=10.141.0.185-9618&noUDP&sock=3735_7a51_3>
...
006 (215853.798.000) 12/19 06:48:18 Image size of job updated: 1172
	2  -  MemoryUsage of job (MB)
	1084  -  ResidentSetSize of job (KB)
...
006 (215853.798.000) 12/19 06:53:18 Image size of job updated: 330084
	322  -  MemoryUsage of job (MB)
	329376  -  ResidentSetSize of job (KB)
...
006 (215853.798.000) 12/19 06:58:18 Image size of job updated: 340784
	333  -  MemoryUsage of job (MB)
	340076  -  ResidentSetSize of job (KB)
...
006 (215853.798.000) 12/19 07:03:19 Image size of job updated: 434784
	421  -  MemoryUsage of job (MB)
	430828  -  ResidentSetSize of job (KB)
...
006 (215853.798.000) 12/19 07:08:19 Image size of job updated: 465180
	451  -  MemoryUsage of job (MB)
	461224  -  ResidentSetSize of job (KB)
...
006 (215853.798.000) 12/19 07:13:19 Image size of job updated: 465192
	451  -  MemoryUsage of job (MB)
	461236  -  ResidentSetSize of job (KB)
...
006 (215853.798.000) 12/19 07:18:20 Image size of job updated: 465200
	451  -  MemoryUsage of job (MB)
	461244  -  ResidentSetSize of job (KB)
...
006 (215853.798.000) 12/19 07:23:20 Image size of job updated: 465216
	451  -  MemoryUsage of job (MB)
	461260  -  ResidentSetSize of job (KB)
...
006 (215853.798.000) 12/19 07:28:21 Image size of job updated: 465224
	451  -  MemoryUsage of job (MB)
	461268  -  ResidentSetSize of job (KB)
...
006 (215853.798.000) 12/19 07:33:21 Image size of job updated: 465236
	451  -  MemoryUsage of job (MB)
	461280  -  ResidentSetSize of job (KB)
...
005 (215853.798.000) 12/19 07:34:16 Job terminated.
	(1) Normal termination (return value 0)
		Usr 0 00:44:32, Sys 0 00:00:10  -  Run Remote Usage
		Usr 0 00:00:00, Sys 0 00:00:00  -  Run Local Usage
		Usr 0 00:44:32, Sys 0 00:00:10  -  Total Remote Usage
		Usr 0 00:00:00, Sys 0 00:00:00  -  Total Local Usage
	11041  -  Run Bytes Sent By Job
	130747352  -  Run Bytes Received By Job
	11041  -  Total Bytes Sent By Job
	130747352  -  Total Bytes Received By Job
	Partitionable Resources :     Usage  Request Allocated 
	   Cpus                 :      0.97        1         1 
	   Disk (KB)            : 127822    15728640  17766676 
	   Memory (MB)          :    451        2048      2100 
...
000 (215856.798.000) 12/21 12:00:48 Job submitted from host: <10.141.253.27:9618?addrs=10.141.253.27-9618&noUDP&sock=3236953_1928_17>
...
001 (215856.798.000) 12/21 14:00:43 Job executing on host: <10.141.0.203:9618?addrs=10.141.0.203-9618&noUDP&sock=3760_a030_3>
...
006 (215856.798.000) 12/21 14:00:52 Image size of job updated: 784
	1  -  MemoryUsage of job (MB)
	780  -  ResidentSetSize of job (KB)
...
006 (215856.798.000) 12/21 14:05:53 Image size of job updated: 503248
	317  -  MemoryUsage of job (MB)
	323752  -  ResidentSetSize of job (KB)
...
006 (215856.798.000) 12/21 14:10:53 Image size of job updated: 514336
	327  -  MemoryUsage of job (MB)
	334840  -  ResidentSetSize of job (KB)
...
006 (215856.798.000) 12/21 14:15:53 Image size of job updated: 514336
	339  -  MemoryUsage of job (MB)
	346368  -  ResidentSetSize of job (KB)
...
006 (215856.798.000) 12/21 14:20:54 Image size of job updated: 514336
	450  -  MemoryUsage of job (MB)
	460164  -  ResidentSetSize of job (KB)
...
006 (215856.798.000) 12/21 14:25:54 Image size of job updated: 514336
	450  -  MemoryUsage of job (MB)
	460176  -  ResidentSetSize of job (KB)
...
006 (215856.798.000) 12/21 14:30:55 Image size of job updated: 514336
	450  -  MemoryUsage of job (MB)
	460192  -  ResidentSetSize of job (KB)
...
006 (215856.798.000) 12/21 14:35:56 Image size of job updated: 514336
	450  -  MemoryUsage of job (MB)
	460200  -  ResidentSetSize of job (KB)
...
006 (215856.798.000) 12/21 14:40:56 Image size of job updated: 514336
	450  -  MemoryUsage of job (MB)
	460212  -  ResidentSetSize of job (KB)
...
005 (215856.798.000) 12/21 14:45:13 Job terminated.
	(1) Normal termination (return value 0)
		Usr 0 00:42:28, Sys 0 00:00:09  -  Run Remote Usage
		Usr 0 00:00:00, Sys 0 00:00:00  -  Run Local Usage
		Usr 0 00:42:28, Sys 0 00:00:09  -  Total Remote Usage
		Usr 0 00:00:00, Sys 0 00:00:00  -  Total Local Usage
	11072  -  Run Bytes Sent By Job
	139815664  -  Run Bytes Received By Job
	11072  -  Total Bytes Sent By Job
	139815664  -  Total Bytes Received By Job
	Partitionable Resources :     Usage  Request Allocated 
	   Cpus                 :      0.98        1         1 
	   Disk (KB)            : 150000    15728640  17766223 
	   Memory (MB)          :    450        2048      2100 
...
000 (59351.798.000) 12/29 12:27:08 Job submitted from host: <10.141.225.107:9618?addrs=10.141.225.107-9618&noUDP&sock=2048_560c_3>
...
001 (59351.798.000) 12/29 13:38:24 Job executing on host: <10.141.0.193:9618?addrs=10.141.0.193-9618&noUDP&sock=3801_bf92_3>
...
006 (59351.798.000) 12/29 13:38:33 Image size of job updated: 21992
	21  -  MemoryUsage of job (MB)
	20896  -  ResidentSetSize of job (KB)
...
006 (59351.798.000) 12/29 13:43:33 Image size of job updated: 342508
	335  -  MemoryUsage of job (MB)
	342124  -  ResidentSetSize of job (KB)
...
006 (59351.798.000) 12/29 13:48:34 Image size of job updated: 355768
	348  -  MemoryUsage of job (MB)
	355384  -  ResidentSetSize of job (KB)
...
006 (59351.798.000) 12/29 13:53:35 Image size of job updated: 495852
	482  -  MemoryUsage of job (MB)
	492912  -  ResidentSetSize of job (KB)
...
006 (59351.798.000) 12/29 13:58:35 Image size of job updated: 495864
	482  -  MemoryUsage of job (MB)
	492924  -  ResidentSetSize of job (KB)
...
006 (59351.798.000) 12/29 14:03:36 Image size of job updated: 495880
	482  -  MemoryUsage of job (MB)
	492940  -  ResidentSetSize of job (KB)
...
006 (59351.798.000) 12/29 14:08:36 Image size of job updated: 496704
	482  -  MemoryUsage of job (MB)
	493160  -  ResidentSetSize of job (KB)
...
006 (59351.798.000) 12/29 14:13:37 Image size of job updated: 496716
	482  -  MemoryUsage of job (MB)
	493172  -  ResidentSetSize of job (KB)
...
005 (59351.798.000) 12/29 14:15:45 Job terminated.
	(1) Normal termination (return value 0)
		Usr 0 00:36:57, Sys 0 00:00:08  -  Run Remote Usage
		Usr 0 00:00:00, Sys 0 00:00:00  -  Run Local Usage
		Usr 0 00:36:57, Sys 0 00:00:08  -  Total Remote Usage
		Usr 0 00:00:00, Sys 0 00:00:00  -  Total Local Usage
	11069  -  Run Bytes Sent By Job
	209776496  -  Run Bytes Received By Job
	11069  -  Total Bytes Sent By Job
	209776496  -  Total Bytes Received By Job
	Partitionable Resources :     Usage  Request Allocated 
	   Cpus                 :      1.00        1         1 
	   Disk (KB)            : 204999    15728640  17768555 
	   Memory (MB)          :    482        2048      2100 
...
