000 (59346.478.000) 12/23 02:02:55 Job submitted from host: <10.141.225.107:9618?addrs=10.141.225.107-9618&noUDP&sock=2048_560c_3>
...
001 (59346.478.000) 12/23 11:36:51 Job executing on host: <10.141.0.142:9618?addrs=10.141.0.142-9618&noUDP&sock=3233_25c6_40>
...
006 (59346.478.000) 12/23 11:37:00 Image size of job updated: 20340
	18  -  MemoryUsage of job (MB)
	18272  -  ResidentSetSize of job (KB)
...
006 (59346.478.000) 12/23 11:42:00 Image size of job updated: 479292
	326  -  MemoryUsage of job (MB)
	333148  -  ResidentSetSize of job (KB)
...
006 (59346.478.000) 12/23 11:47:00 Image size of job updated: 479292
	336  -  MemoryUsage of job (MB)
	343488  -  ResidentSetSize of job (KB)
...
006 (59346.478.000) 12/23 11:52:01 Image size of job updated: 479292
	346  -  MemoryUsage of job (MB)
	353720  -  ResidentSetSize of job (KB)
...
006 (59346.478.000) 12/23 11:57:01 Image size of job updated: 479292
	453  -  MemoryUsage of job (MB)
	463272  -  ResidentSetSize of job (KB)
...
006 (59346.478.000) 12/23 12:02:02 Image size of job updated: 479292
	453  -  MemoryUsage of job (MB)
	463284  -  ResidentSetSize of job (KB)
...
006 (59346.478.000) 12/23 12:07:02 Image size of job updated: 479292
	453  -  MemoryUsage of job (MB)
	463296  -  ResidentSetSize of job (KB)
...
006 (59346.478.000) 12/23 12:12:02 Image size of job updated: 479292
	453  -  MemoryUsage of job (MB)
	463308  -  ResidentSetSize of job (KB)
...
006 (59346.478.000) 12/23 12:17:03 Image size of job updated: 479292
	453  -  MemoryUsage of job (MB)
	463320  -  ResidentSetSize of job (KB)
...
006 (59346.478.000) 12/23 12:22:03 Image size of job updated: 479292
	453  -  MemoryUsage of job (MB)
	463328  -  ResidentSetSize of job (KB)
...
006 (59346.478.000) 12/23 12:23:18 Image size of job updated: 6329548
	453  -  MemoryUsage of job (MB)
	463328  -  ResidentSetSize of job (KB)
...
005 (59346.478.000) 12/23 12:23:18 Job terminated.
	(1) Normal termination (return value 0)
		Usr 0 00:45:34, Sys 0 00:00:10  -  Run Remote Usage
		Usr 0 00:00:00, Sys 0 00:00:00  -  Run Local Usage
		Usr 0 00:45:34, Sys 0 00:00:10  -  Total Remote Usage
		Usr 0 00:00:00, Sys 0 00:00:00  -  Total Local Usage
	10990  -  Run Bytes Sent By Job
	178724272  -  Run Bytes Received By Job
	10990  -  Total Bytes Sent By Job
	178724272  -  Total Bytes Received By Job
	Partitionable Resources :     Usage  Request Allocated 
	   Cpus                 :      0.98        1         1 
	   Disk (KB)            : 174675    15728640  18812869 
	   Memory (MB)          :    453        2048      2100 
...
