000 (59345.549.000) 12/23 02:01:40 Job submitted from host: <10.141.225.107:9618?addrs=10.141.225.107-9618&noUDP&sock=2048_560c_3>
...
001 (59345.549.000) 12/23 05:21:20 Job executing on host: <10.141.0.78:9618?addrs=10.141.0.78-9618&noUDP&sock=2679_264f_3>
...
006 (59345.549.000) 12/23 05:21:29 Image size of job updated: 5132
	4  -  MemoryUsage of job (MB)
	3424  -  ResidentSetSize of job (KB)
...
006 (59345.549.000) 12/23 05:26:30 Image size of job updated: 493760
	305  -  MemoryUsage of job (MB)
	312164  -  ResidentSetSize of job (KB)
...
006 (59345.549.000) 12/23 05:31:30 Image size of job updated: 511296
	322  -  MemoryUsage of job (MB)
	328736  -  ResidentSetSize of job (KB)
...
006 (59345.549.000) 12/23 05:36:30 Image size of job updated: 519844
	330  -  MemoryUsage of job (MB)
	337284  -  ResidentSetSize of job (KB)
...
006 (59345.549.000) 12/23 05:41:31 Image size of job updated: 528256
	338  -  MemoryUsage of job (MB)
	345696  -  ResidentSetSize of job (KB)
...
006 (59345.549.000) 12/23 05:46:31 Image size of job updated: 639528
	440  -  MemoryUsage of job (MB)
	450392  -  ResidentSetSize of job (KB)
...
006 (59345.549.000) 12/23 05:51:31 Image size of job updated: 642376
	443  -  MemoryUsage of job (MB)
	453240  -  ResidentSetSize of job (KB)
...
006 (59345.549.000) 12/23 05:56:32 Image size of job updated: 642380
	443  -  MemoryUsage of job (MB)
	453244  -  ResidentSetSize of job (KB)
...
006 (59345.549.000) 12/23 06:01:32 Image size of job updated: 642384
	443  -  MemoryUsage of job (MB)
	453248  -  ResidentSetSize of job (KB)
...
006 (59345.549.000) 12/23 06:06:33 Image size of job updated: 642392
	443  -  MemoryUsage of job (MB)
	453256  -  ResidentSetSize of job (KB)
...
006 (59345.549.000) 12/23 06:11:34 Image size of job updated: 642396
	443  -  MemoryUsage of job (MB)
	453260  -  ResidentSetSize of job (KB)
...
006 (59345.549.000) 12/23 06:16:34 Image size of job updated: 642404
	443  -  MemoryUsage of job (MB)
	453268  -  ResidentSetSize of job (KB)
...
006 (59345.549.000) 12/23 06:21:36 Image size of job updated: 642408
	443  -  MemoryUsage of job (MB)
	453272  -  ResidentSetSize of job (KB)
...
006 (59345.549.000) 12/23 06:26:36 Image size of job updated: 642416
	443  -  MemoryUsage of job (MB)
	453280  -  ResidentSetSize of job (KB)
...
006 (59345.549.000) 12/23 06:31:36 Image size of job updated: 642420
	443  -  MemoryUsage of job (MB)
	453284  -  ResidentSetSize of job (KB)
...
006 (59345.549.000) 12/23 06:36:37 Image size of job updated: 642428
	443  -  MemoryUsage of job (MB)
	453292  -  ResidentSetSize of job (KB)
...
006 (59345.549.000) 12/23 06:41:20 Image size of job updated: 642432
	443  -  MemoryUsage of job (MB)
	453292  -  ResidentSetSize of job (KB)
...
005 (59345.549.000) 12/23 06:41:20 Job terminated.
	(1) Normal termination (return value 0)
		Usr 0 01:18:44, Sys 0 00:00:12  -  Run Remote Usage
		Usr 0 00:00:00, Sys 0 00:00:00  -  Run Local Usage
		Usr 0 01:18:44, Sys 0 00:00:12  -  Total Remote Usage
		Usr 0 00:00:00, Sys 0 00:00:00  -  Total Local Usage
	11049  -  Run Bytes Sent By Job
	117537472  -  Run Bytes Received By Job
	11049  -  Total Bytes Sent By Job
	117537472  -  Total Bytes Received By Job
	Partitionable Resources :     Usage  Request Allocated 
	   Cpus                 :      0.99        1         1 
	   Disk (KB)            : 114926    15728640  16978426 
	   Memory (MB)          :    443        2048      2100 
...
