000 (59346.527.000) 12/23 02:02:55 Job submitted from host: <10.141.225.107:9618?addrs=10.141.225.107-9618&noUDP&sock=2048_560c_3>
...
001 (59346.527.000) 12/23 11:40:54 Job executing on host: <10.141.0.191:9618?addrs=10.141.0.191-9618&noUDP&sock=3754_829e_3>
...
006 (59346.527.000) 12/23 11:41:03 Image size of job updated: 1204
	2  -  MemoryUsage of job (MB)
	1204  -  ResidentSetSize of job (KB)
...
006 (59346.527.000) 12/23 11:46:03 Image size of job updated: 500176
	314  -  MemoryUsage of job (MB)
	321248  -  ResidentSetSize of job (KB)
...
006 (59346.527.000) 12/23 11:51:05 Image size of job updated: 500176
	324  -  MemoryUsage of job (MB)
	331036  -  ResidentSetSize of job (KB)
...
006 (59346.527.000) 12/23 11:56:05 Image size of job updated: 500176
	335  -  MemoryUsage of job (MB)
	342124  -  ResidentSetSize of job (KB)
...
006 (59346.527.000) 12/23 12:01:05 Image size of job updated: 500176
	452  -  MemoryUsage of job (MB)
	462708  -  ResidentSetSize of job (KB)
...
006 (59346.527.000) 12/23 12:06:06 Image size of job updated: 500176
	452  -  MemoryUsage of job (MB)
	462720  -  ResidentSetSize of job (KB)
...
006 (59346.527.000) 12/23 12:11:06 Image size of job updated: 500176
	452  -  MemoryUsage of job (MB)
	462728  -  ResidentSetSize of job (KB)
...
006 (59346.527.000) 12/23 12:16:07 Image size of job updated: 500176
	452  -  MemoryUsage of job (MB)
	462748  -  ResidentSetSize of job (KB)
...
006 (59346.527.000) 12/23 12:21:07 Image size of job updated: 500176
	452  -  MemoryUsage of job (MB)
	462756  -  ResidentSetSize of job (KB)
...
006 (59346.527.000) 12/23 12:26:09 Image size of job updated: 500176
	452  -  MemoryUsage of job (MB)
	462768  -  ResidentSetSize of job (KB)
...
005 (59346.527.000) 12/23 12:29:19 Job terminated.
	(1) Normal termination (return value 0)
		Usr 0 00:45:31, Sys 0 00:00:09  -  Run Remote Usage
		Usr 0 00:00:00, Sys 0 00:00:00  -  Run Local Usage
		Usr 0 00:45:31, Sys 0 00:00:09  -  Total Remote Usage
		Usr 0 00:00:00, Sys 0 00:00:00  -  Total Local Usage
	11030  -  Run Bytes Sent By Job
	178758352  -  Run Bytes Received By Job
	11030  -  Total Bytes Sent By Job
	178758352  -  Total Bytes Received By Job
	Partitionable Resources :     Usage  Request Allocated 
	   Cpus                 :      0.96        1         1 
	   Disk (KB)            : 174708    15728640  17767151 
	   Memory (MB)          :    452        2048      2100 
...
