000 (215853.460.000) 12/19 01:56:21 Job submitted from host: <10.141.253.27:9618?addrs=10.141.253.27-9618&noUDP&sock=3236953_1928_17>
...
001 (215853.460.000) 12/19 02:47:51 Job executing on host: <10.141.0.148:9618?addrs=10.141.0.148-9618&noUDP&sock=3303_2968_3>
...
006 (215853.460.000) 12/19 02:48:00 Image size of job updated: 14400
	14  -  MemoryUsage of job (MB)
	13624  -  ResidentSetSize of job (KB)
...
006 (215853.460.000) 12/19 02:53:01 Image size of job updated: 331628
	323  -  MemoryUsage of job (MB)
	330468  -  ResidentSetSize of job (KB)
...
006 (215853.460.000) 12/19 02:58:01 Image size of job updated: 341556
	333  -  MemoryUsage of job (MB)
	340396  -  ResidentSetSize of job (KB)
...
006 (215853.460.000) 12/19 03:03:01 Image size of job updated: 351516
	343  -  MemoryUsage of job (MB)
	350356  -  ResidentSetSize of job (KB)
...
006 (215853.460.000) 12/19 03:08:02 Image size of job updated: 450808
	440  -  MemoryUsage of job (MB)
	449632  -  ResidentSetSize of job (KB)
...
006 (215853.460.000) 12/19 03:13:02 Image size of job updated: 450816
	440  -  MemoryUsage of job (MB)
	449640  -  ResidentSetSize of job (KB)
...
006 (215853.460.000) 12/19 03:18:02 Image size of job updated: 450828
	440  -  MemoryUsage of job (MB)
	449652  -  ResidentSetSize of job (KB)
...
006 (215853.460.000) 12/19 03:23:03 Image size of job updated: 450840
	440  -  MemoryUsage of job (MB)
	449664  -  ResidentSetSize of job (KB)
...
006 (215853.460.000) 12/19 03:28:03 Image size of job updated: 450852
	440  -  MemoryUsage of job (MB)
	449676  -  ResidentSetSize of job (KB)
...
006 (215853.460.000) 12/19 03:33:03 Image size of job updated: 450864
	440  -  MemoryUsage of job (MB)
	449688  -  ResidentSetSize of job (KB)
...
005 (215853.460.000) 12/19 03:35:52 Job terminated.
	(1) Normal termination (return value 0)
		Usr 0 00:47:08, Sys 0 00:00:09  -  Run Remote Usage
		Usr 0 00:00:00, Sys 0 00:00:00  -  Run Local Usage
		Usr 0 00:47:08, Sys 0 00:00:09  -  Total Remote Usage
		Usr 0 00:00:00, Sys 0 00:00:00  -  Total Local Usage
	11000  -  Run Bytes Sent By Job
	91998272  -  Run Bytes Received By Job
	11000  -  Total Bytes Sent By Job
	91998272  -  Total Bytes Received By Job
	Partitionable Resources :     Usage  Request Allocated 
	   Cpus                 :      0.96        1         1 
	   Disk (KB)            : 100000    15728640  18812246 
	   Memory (MB)          :    440        2048      2100 
...
000 (215856.460.000) 12/21 12:00:47 Job submitted from host: <10.141.253.27:9618?addrs=10.141.253.27-9618&noUDP&sock=3236953_1928_17>
...
001 (215856.460.000) 12/21 13:11:59 Job executing on host: <10.141.0.107:9618?addrs=10.141.0.107-9618&noUDP&sock=3146_7909_28>
...
006 (215856.460.000) 12/21 13:12:08 Image size of job updated: 772
	1  -  MemoryUsage of job (MB)
	772  -  ResidentSetSize of job (KB)
...
006 (215856.460.000) 12/21 13:17:09 Image size of job updated: 500768
	312  -  MemoryUsage of job (MB)
	318648  -  ResidentSetSize of job (KB)
...
006 (215856.460.000) 12/21 13:22:10 Image size of job updated: 519016
	329  -  MemoryUsage of job (MB)
	335932  -  ResidentSetSize of job (KB)
...
006 (215856.460.000) 12/21 13:27:10 Image size of job updated: 528644
	338  -  MemoryUsage of job (MB)
	345560  -  ResidentSetSize of job (KB)
...
006 (215856.460.000) 12/21 13:32:11 Image size of job updated: 538352
	347  -  MemoryUsage of job (MB)
	355268  -  ResidentSetSize of job (KB)
...
006 (215856.460.000) 12/21 13:37:11 Image size of job updated: 653924
	454  -  MemoryUsage of job (MB)
	464060  -  ResidentSetSize of job (KB)
...
006 (215856.460.000) 12/21 13:42:11 Image size of job updated: 653936
	454  -  MemoryUsage of job (MB)
	464072  -  ResidentSetSize of job (KB)
...
006 (215856.460.000) 12/21 13:47:12 Image size of job updated: 653944
	454  -  MemoryUsage of job (MB)
	464080  -  ResidentSetSize of job (KB)
...
006 (215856.460.000) 12/21 13:52:12 Image size of job updated: 653956
	454  -  MemoryUsage of job (MB)
	464092  -  ResidentSetSize of job (KB)
...
006 (215856.460.000) 12/21 13:57:13 Image size of job updated: 654068
	454  -  MemoryUsage of job (MB)
	464204  -  ResidentSetSize of job (KB)
...
006 (215856.460.000) 12/21 14:02:14 Image size of job updated: 654080
	454  -  MemoryUsage of job (MB)
	464216  -  ResidentSetSize of job (KB)
...
006 (215856.460.000) 12/21 14:07:03 Image size of job updated: 654088
	454  -  MemoryUsage of job (MB)
	464216  -  ResidentSetSize of job (KB)
...
005 (215856.460.000) 12/21 14:07:04 Job terminated.
	(1) Normal termination (return value 0)
		Usr 0 00:52:08, Sys 0 00:00:10  -  Run Remote Usage
		Usr 0 00:00:00, Sys 0 00:00:00  -  Run Local Usage
		Usr 0 00:52:08, Sys 0 00:00:10  -  Total Remote Usage
		Usr 0 00:00:00, Sys 0 00:00:00  -  Total Local Usage
	10991  -  Run Bytes Sent By Job
	139005264  -  Run Bytes Received By Job
	10991  -  Total Bytes Sent By Job
	139005264  -  Total Bytes Received By Job
	Partitionable Resources :     Usage  Request Allocated 
	   Cpus                 :      0.95        1         1 
	   Disk (KB)            : 150000    15728640  18163382 
	   Memory (MB)          :    454        2048      2100 
...
000 (59351.460.000) 12/29 12:27:06 Job submitted from host: <10.141.225.107:9618?addrs=10.141.225.107-9618&noUDP&sock=2048_560c_3>
...
001 (59351.460.000) 12/29 13:14:28 Job executing on host: <10.141.0.201:9618?addrs=10.141.0.201-9618&noUDP&sock=3713_633c_3>
...
006 (59351.460.000) 12/29 13:14:37 Image size of job updated: 31052
	30  -  MemoryUsage of job (MB)
	30228  -  ResidentSetSize of job (KB)
...
006 (59351.460.000) 12/29 13:19:38 Image size of job updated: 331592
	324  -  MemoryUsage of job (MB)
	331260  -  ResidentSetSize of job (KB)
...
006 (59351.460.000) 12/29 13:24:39 Image size of job updated: 344028
	336  -  MemoryUsage of job (MB)
	343696  -  ResidentSetSize of job (KB)
...
006 (59351.460.000) 12/29 13:29:39 Image size of job updated: 467916
	457  -  MemoryUsage of job (MB)
	467580  -  ResidentSetSize of job (KB)
...
006 (59351.460.000) 12/29 13:34:40 Image size of job updated: 467916
	457  -  MemoryUsage of job (MB)
	467592  -  ResidentSetSize of job (KB)
...
006 (59351.460.000) 12/29 13:39:40 Image size of job updated: 467936
	457  -  MemoryUsage of job (MB)
	467612  -  ResidentSetSize of job (KB)
...
006 (59351.460.000) 12/29 13:44:41 Image size of job updated: 467956
	457  -  MemoryUsage of job (MB)
	467628  -  ResidentSetSize of job (KB)
...
006 (59351.460.000) 12/29 13:49:41 Image size of job updated: 468084
	457  -  MemoryUsage of job (MB)
	467636  -  ResidentSetSize of job (KB)
...
006 (59351.460.000) 12/29 13:51:16 Image size of job updated: 468096
	457  -  MemoryUsage of job (MB)
	467636  -  ResidentSetSize of job (KB)
...
005 (59351.460.000) 12/29 13:51:17 Job terminated.
	(1) Normal termination (return value 0)
		Usr 0 00:36:21, Sys 0 00:00:09  -  Run Remote Usage
		Usr 0 00:00:00, Sys 0 00:00:00  -  Run Local Usage
		Usr 0 00:36:21, Sys 0 00:00:09  -  Total Remote Usage
		Usr 0 00:00:00, Sys 0 00:00:00  -  Total Local Usage
	11008  -  Run Bytes Sent By Job
	199295456  -  Run Bytes Received By Job
	11008  -  Total Bytes Sent By Job
	199295456  -  Total Bytes Received By Job
	Partitionable Resources :     Usage  Request Allocated 
	   Cpus                 :      1.00        1         1 
	   Disk (KB)            : 200000    15728640  18100960 
	   Memory (MB)          :    457        2048      2100 
...
