000 (215853.295.000) 12/19 01:56:20 Job submitted from host: <10.141.253.27:9618?addrs=10.141.253.27-9618&noUDP&sock=3236953_1928_17>
...
001 (215853.295.000) 12/19 02:26:35 Job executing on host: <10.141.0.189:9618?addrs=10.141.0.189-9618&noUDP&sock=3797_0131_3>
...
006 (215853.295.000) 12/19 02:26:44 Image size of job updated: 888
	1  -  MemoryUsage of job (MB)
	888  -  ResidentSetSize of job (KB)
...
006 (215853.295.000) 12/19 02:31:45 Image size of job updated: 518252
	327  -  MemoryUsage of job (MB)
	334688  -  ResidentSetSize of job (KB)
...
006 (215853.295.000) 12/19 02:36:45 Image size of job updated: 529820
	339  -  MemoryUsage of job (MB)
	346256  -  ResidentSetSize of job (KB)
...
006 (215853.295.000) 12/19 02:41:45 Image size of job updated: 540444
	349  -  MemoryUsage of job (MB)
	356880  -  ResidentSetSize of job (KB)
...
006 (215853.295.000) 12/19 02:46:46 Image size of job updated: 667352
	473  -  MemoryUsage of job (MB)
	483788  -  ResidentSetSize of job (KB)
...
006 (215853.295.000) 12/19 02:51:46 Image size of job updated: 667364
	473  -  MemoryUsage of job (MB)
	483800  -  ResidentSetSize of job (KB)
...
006 (215853.295.000) 12/19 02:56:46 Image size of job updated: 667372
	473  -  MemoryUsage of job (MB)
	483808  -  ResidentSetSize of job (KB)
...
006 (215853.295.000) 12/19 03:01:47 Image size of job updated: 667388
	473  -  MemoryUsage of job (MB)
	483824  -  ResidentSetSize of job (KB)
...
006 (215853.295.000) 12/19 03:06:47 Image size of job updated: 667388
	473  -  MemoryUsage of job (MB)
	483832  -  ResidentSetSize of job (KB)
...
006 (215853.295.000) 12/19 03:11:47 Image size of job updated: 667388
	473  -  MemoryUsage of job (MB)
	483844  -  ResidentSetSize of job (KB)
...
005 (215853.295.000) 12/19 03:15:12 Job terminated.
	(1) Normal termination (return value 0)
		Usr 0 00:46:30, Sys 0 00:00:10  -  Run Remote Usage
		Usr 0 00:00:00, Sys 0 00:00:00  -  Run Local Usage
		Usr 0 00:46:30, Sys 0 00:00:10  -  Total Remote Usage
		Usr 0 00:00:00, Sys 0 00:00:00  -  Total Local Usage
	11071  -  Run Bytes Sent By Job
	90347624  -  Run Bytes Received By Job
	11071  -  Total Bytes Sent By Job
	90347624  -  Total Bytes Received By Job
	Partitionable Resources :     Usage  Request Allocated 
	   Cpus                 :      1.00        1         1 
	   Disk (KB)            : 100000    15728640  17766353 
	   Memory (MB)          :    473        2048      2100 
...
000 (215856.295.000) 12/21 12:00:46 Job submitted from host: <10.141.253.27:9618?addrs=10.141.253.27-9618&noUDP&sock=3236953_1928_17>
...
001 (215856.295.000) 12/21 13:04:10 Job executing on host: <10.141.0.186:9618?addrs=10.141.0.186-9618&noUDP&sock=3737_d982_3>
...
006 (215856.295.000) 12/21 13:04:19 Image size of job updated: 3804
	4  -  MemoryUsage of job (MB)
	3436  -  ResidentSetSize of job (KB)
...
006 (215856.295.000) 12/21 13:09:19 Image size of job updated: 330328
	323  -  MemoryUsage of job (MB)
	329984  -  ResidentSetSize of job (KB)
...
006 (215856.295.000) 12/21 13:14:20 Image size of job updated: 341864
	334  -  MemoryUsage of job (MB)
	341520  -  ResidentSetSize of job (KB)
...
006 (215856.295.000) 12/21 13:19:21 Image size of job updated: 377344
	369  -  MemoryUsage of job (MB)
	377000  -  ResidentSetSize of job (KB)
...
006 (215856.295.000) 12/21 13:24:21 Image size of job updated: 484288
	473  -  MemoryUsage of job (MB)
	483944  -  ResidentSetSize of job (KB)
...
006 (215856.295.000) 12/21 13:29:23 Image size of job updated: 484300
	473  -  MemoryUsage of job (MB)
	483956  -  ResidentSetSize of job (KB)
...
006 (215856.295.000) 12/21 13:34:23 Image size of job updated: 484308
	473  -  MemoryUsage of job (MB)
	483964  -  ResidentSetSize of job (KB)
...
006 (215856.295.000) 12/21 13:39:23 Image size of job updated: 484320
	473  -  MemoryUsage of job (MB)
	483976  -  ResidentSetSize of job (KB)
...
006 (215856.295.000) 12/21 13:44:24 Image size of job updated: 484332
	473  -  MemoryUsage of job (MB)
	483988  -  ResidentSetSize of job (KB)
...
006 (215856.295.000) 12/21 13:49:24 Image size of job updated: 484340
	473  -  MemoryUsage of job (MB)
	483996  -  ResidentSetSize of job (KB)
...
006 (215856.295.000) 12/21 13:50:28 Image size of job updated: 12835020
	473  -  MemoryUsage of job (MB)
	483996  -  ResidentSetSize of job (KB)
...
005 (215856.295.000) 12/21 13:50:29 Job terminated.
	(1) Normal termination (return value 0)
		Usr 0 00:45:04, Sys 0 00:00:11  -  Run Remote Usage
		Usr 0 00:00:00, Sys 0 00:00:00  -  Run Local Usage
		Usr 0 00:45:04, Sys 0 00:00:11  -  Total Remote Usage
		Usr 0 00:00:00, Sys 0 00:00:00  -  Total Local Usage
	11069  -  Run Bytes Sent By Job
	138880912  -  Run Bytes Received By Job
	11069  -  Total Bytes Sent By Job
	138880912  -  Total Bytes Received By Job
	Partitionable Resources :     Usage  Request Allocated 
	   Cpus                 :      0.99        1         1 
	   Disk (KB)            : 150000    15728640  17766395 
	   Memory (MB)          :    473        2048      2100 
...
000 (59351.295.000) 12/29 12:27:05 Job submitted from host: <10.141.225.107:9618?addrs=10.141.225.107-9618&noUDP&sock=2048_560c_3>
...
001 (59351.295.000) 12/29 12:38:08 Job executing on host: <10.141.0.197:9618?addrs=10.141.0.197-9618&noUDP&sock=5226_2e07_28>
...
006 (59351.295.000) 12/29 12:38:18 Image size of job updated: 14416
	13  -  MemoryUsage of job (MB)
	13068  -  ResidentSetSize of job (KB)
...
006 (59351.295.000) 12/29 12:43:18 Image size of job updated: 322276
	315  -  MemoryUsage of job (MB)
	321692  -  ResidentSetSize of job (KB)
...
006 (59351.295.000) 12/29 12:48:18 Image size of job updated: 333776
	326  -  MemoryUsage of job (MB)
	333192  -  ResidentSetSize of job (KB)
...
006 (59351.295.000) 12/29 12:53:19 Image size of job updated: 417836
	408  -  MemoryUsage of job (MB)
	417252  -  ResidentSetSize of job (KB)
...
006 (59351.295.000) 12/29 12:58:19 Image size of job updated: 440016
	430  -  MemoryUsage of job (MB)
	439432  -  ResidentSetSize of job (KB)
...
006 (59351.295.000) 12/29 13:03:20 Image size of job updated: 440016
	430  -  MemoryUsage of job (MB)
	439448  -  ResidentSetSize of job (KB)
...
006 (59351.295.000) 12/29 13:08:20 Image size of job updated: 440016
	430  -  MemoryUsage of job (MB)
	439460  -  ResidentSetSize of job (KB)
...
006 (59351.295.000) 12/29 13:13:21 Image size of job updated: 440016
	430  -  MemoryUsage of job (MB)
	439472  -  ResidentSetSize of job (KB)
...
006 (59351.295.000) 12/29 13:18:21 Image size of job updated: 440600
	430  -  MemoryUsage of job (MB)
	439484  -  ResidentSetSize of job (KB)
...
006 (59351.295.000) 12/29 13:18:46 Image size of job updated: 12820176
	430  -  MemoryUsage of job (MB)
	439484  -  ResidentSetSize of job (KB)
...
005 (59351.295.000) 12/29 13:18:46 Job terminated.
	(1) Normal termination (return value 0)
		Usr 0 00:40:05, Sys 0 00:00:09  -  Run Remote Usage
		Usr 0 00:00:00, Sys 0 00:00:00  -  Run Local Usage
		Usr 0 00:40:05, Sys 0 00:00:09  -  Total Remote Usage
		Usr 0 00:00:00, Sys 0 00:00:00  -  Total Local Usage
	11067  -  Run Bytes Sent By Job
	196332192  -  Run Bytes Received By Job
	11067  -  Total Bytes Sent By Job
	196332192  -  Total Bytes Received By Job
	Partitionable Resources :     Usage  Request Allocated 
	   Cpus                 :      1.01        1         1 
	   Disk (KB)            : 200000    15728640  17767643 
	   Memory (MB)          :    430        2048      2100 
...
