000 (59345.742.000) 12/23 02:01:40 Job submitted from host: <10.141.225.107:9618?addrs=10.141.225.107-9618&noUDP&sock=2048_560c_3>
...
001 (59345.742.000) 12/23 05:57:54 Job executing on host: <10.141.0.155:9618?addrs=10.141.0.155-9618&noUDP&sock=2781_1cf8_40>
...
006 (59345.742.000) 12/23 05:58:02 Image size of job updated: 17952
	11  -  MemoryUsage of job (MB)
	10660  -  ResidentSetSize of job (KB)
...
006 (59345.742.000) 12/23 06:03:02 Image size of job updated: 488400
	299  -  MemoryUsage of job (MB)
	305304  -  ResidentSetSize of job (KB)
...
006 (59345.742.000) 12/23 06:08:04 Image size of job updated: 498584
	309  -  MemoryUsage of job (MB)
	315488  -  ResidentSetSize of job (KB)
...
006 (59345.742.000) 12/23 06:13:04 Image size of job updated: 509124
	319  -  MemoryUsage of job (MB)
	326028  -  ResidentSetSize of job (KB)
...
006 (59345.742.000) 12/23 06:18:04 Image size of job updated: 625580
	426  -  MemoryUsage of job (MB)
	435700  -  ResidentSetSize of job (KB)
...
006 (59345.742.000) 12/23 06:23:05 Image size of job updated: 631500
	432  -  MemoryUsage of job (MB)
	441620  -  ResidentSetSize of job (KB)
...
006 (59345.742.000) 12/23 06:28:05 Image size of job updated: 631512
	432  -  MemoryUsage of job (MB)
	441632  -  ResidentSetSize of job (KB)
...
006 (59345.742.000) 12/23 06:33:06 Image size of job updated: 631528
	432  -  MemoryUsage of job (MB)
	441648  -  ResidentSetSize of job (KB)
...
006 (59345.742.000) 12/23 06:38:07 Image size of job updated: 631536
	432  -  MemoryUsage of job (MB)
	441656  -  ResidentSetSize of job (KB)
...
006 (59345.742.000) 12/23 06:43:07 Image size of job updated: 631548
	432  -  MemoryUsage of job (MB)
	441668  -  ResidentSetSize of job (KB)
...
006 (59345.742.000) 12/23 06:46:28 Image size of job updated: 631928
	432  -  MemoryUsage of job (MB)
	441668  -  ResidentSetSize of job (KB)
...
005 (59345.742.000) 12/23 06:46:28 Job terminated.
	(1) Normal termination (return value 0)
		Usr 0 00:45:46, Sys 0 00:00:10  -  Run Remote Usage
		Usr 0 00:00:00, Sys 0 00:00:00  -  Run Local Usage
		Usr 0 00:45:46, Sys 0 00:00:10  -  Total Remote Usage
		Usr 0 00:00:00, Sys 0 00:00:00  -  Total Local Usage
	11033  -  Run Bytes Sent By Job
	125965136  -  Run Bytes Received By Job
	11033  -  Total Bytes Sent By Job
	125965136  -  Total Bytes Received By Job
	Partitionable Resources :     Usage  Request Allocated 
	   Cpus                 :      1.00        1         1 
	   Disk (KB)            : 123154    15728640  18812854 
	   Memory (MB)          :    432        2048      2100 
...
