000 (215853.090.000) 12/19 01:56:20 Job submitted from host: <10.141.253.27:9618?addrs=10.141.253.27-9618&noUDP&sock=3236953_1928_17>
...
001 (215853.090.000) 12/19 02:04:10 Job executing on host: <10.141.0.185:9618?addrs=10.141.0.185-9618&noUDP&sock=3735_7a51_3>
...
006 (215853.090.000) 12/19 02:04:19 Image size of job updated: 23656
	16  -  MemoryUsage of job (MB)
	16336  -  ResidentSetSize of job (KB)
...
006 (215853.090.000) 12/19 02:09:19 Image size of job updated: 503580
	317  -  MemoryUsage of job (MB)
	324028  -  ResidentSetSize of job (KB)
...
006 (215853.090.000) 12/19 02:14:19 Image size of job updated: 523884
	336  -  MemoryUsage of job (MB)
	343772  -  ResidentSetSize of job (KB)
...
006 (215853.090.000) 12/19 02:19:20 Image size of job updated: 523884
	346  -  MemoryUsage of job (MB)
	353864  -  ResidentSetSize of job (KB)
...
006 (215853.090.000) 12/19 02:24:20 Image size of job updated: 523884
	445  -  MemoryUsage of job (MB)
	455472  -  ResidentSetSize of job (KB)
...
006 (215853.090.000) 12/19 02:29:20 Image size of job updated: 523884
	464  -  MemoryUsage of job (MB)
	475008  -  ResidentSetSize of job (KB)
...
006 (215853.090.000) 12/19 02:34:21 Image size of job updated: 523884
	464  -  MemoryUsage of job (MB)
	475016  -  ResidentSetSize of job (KB)
...
006 (215853.090.000) 12/19 02:39:22 Image size of job updated: 523884
	464  -  MemoryUsage of job (MB)
	475032  -  ResidentSetSize of job (KB)
...
006 (215853.090.000) 12/19 02:44:22 Image size of job updated: 523884
	464  -  MemoryUsage of job (MB)
	475036  -  ResidentSetSize of job (KB)
...
006 (215853.090.000) 12/19 02:49:23 Image size of job updated: 523884
	464  -  MemoryUsage of job (MB)
	475048  -  ResidentSetSize of job (KB)
...
005 (215853.090.000) 12/19 02:53:21 Job terminated.
	(1) Normal termination (return value 0)
		Usr 0 00:45:01, Sys 0 00:00:09  -  Run Remote Usage
		Usr 0 00:00:00, Sys 0 00:00:00  -  Run Local Usage
		Usr 0 00:45:01, Sys 0 00:00:09  -  Total Remote Usage
		Usr 0 00:00:00, Sys 0 00:00:00  -  Total Local Usage
	10973  -  Run Bytes Sent By Job
	90183344  -  Run Bytes Received By Job
	10973  -  Total Bytes Sent By Job
	90183344  -  Total Bytes Received By Job
	Partitionable Resources :     Usage  Request Allocated 
	   Cpus                 :      0.99        1         1 
	   Disk (KB)            : 100000    15728640  17766676 
	   Memory (MB)          :    464        2048      2100 
...
000 (215856.090.000) 12/21 12:00:46 Job submitted from host: <10.141.253.27:9618?addrs=10.141.253.27-9618&noUDP&sock=3236953_1928_17>
...
001 (215856.090.000) 12/21 12:17:25 Job executing on host: <10.141.0.115:9618?addrs=10.141.0.115-9618&noUDP&sock=3045_31f8_28>
...
006 (215856.090.000) 12/21 12:17:34 Image size of job updated: 1136
	2  -  MemoryUsage of job (MB)
	1136  -  ResidentSetSize of job (KB)
...
006 (215856.090.000) 12/21 12:22:36 Image size of job updated: 343844
	315  -  MemoryUsage of job (MB)
	322508  -  ResidentSetSize of job (KB)
...
006 (215856.090.000) 12/21 12:27:36 Image size of job updated: 361660
	333  -  MemoryUsage of job (MB)
	340324  -  ResidentSetSize of job (KB)
...
006 (215856.090.000) 12/21 12:32:36 Image size of job updated: 371536
	342  -  MemoryUsage of job (MB)
	349976  -  ResidentSetSize of job (KB)
...
006 (215856.090.000) 12/21 12:37:37 Image size of job updated: 371536
	352  -  MemoryUsage of job (MB)
	359572  -  ResidentSetSize of job (KB)
...
006 (215856.090.000) 12/21 12:42:37 Image size of job updated: 465268
	455  -  MemoryUsage of job (MB)
	465112  -  ResidentSetSize of job (KB)
...
006 (215856.090.000) 12/21 12:52:25 Image size of job updated: 465276
	455  -  MemoryUsage of job (MB)
	465120  -  ResidentSetSize of job (KB)
...
006 (215856.090.000) 12/21 13:06:48 Image size of job updated: 465316
	455  -  MemoryUsage of job (MB)
	465160  -  ResidentSetSize of job (KB)
...
006 (215856.090.000) 12/21 13:11:27 Image size of job updated: 6330024
	455  -  MemoryUsage of job (MB)
	465160  -  ResidentSetSize of job (KB)
...
005 (215856.090.000) 12/21 13:11:27 Job terminated.
	(1) Normal termination (return value 0)
		Usr 0 00:52:09, Sys 0 00:00:11  -  Run Remote Usage
		Usr 0 00:00:00, Sys 0 00:00:00  -  Run Local Usage
		Usr 0 00:52:09, Sys 0 00:00:11  -  Total Remote Usage
		Usr 0 00:00:00, Sys 0 00:00:00  -  Total Local Usage
	10986  -  Run Bytes Sent By Job
	138648096  -  Run Bytes Received By Job
	10986  -  Total Bytes Sent By Job
	138648096  -  Total Bytes Received By Job
	Partitionable Resources :     Usage  Request Allocated 
	   Cpus                 :      0.96        1         1 
	   Disk (KB)            : 150000    15728640  18163341 
	   Memory (MB)          :    455        2048      2100 
...
000 (59351.090.000) 12/29 12:27:04 Job submitted from host: <10.141.225.107:9618?addrs=10.141.225.107-9618&noUDP&sock=2048_560c_3>
...
001 (59351.090.000) 12/29 12:32:03 Job executing on host: <10.141.0.61:9618?addrs=10.141.0.61-9618&noUDP&sock=2432_ba6a_3>
...
006 (59351.090.000) 12/29 12:32:11 Image size of job updated: 1132
	2  -  MemoryUsage of job (MB)
	1132  -  ResidentSetSize of job (KB)
...
006 (59351.090.000) 12/29 12:37:11 Image size of job updated: 3744
	4  -  MemoryUsage of job (MB)
	3428  -  ResidentSetSize of job (KB)
...
006 (59351.090.000) 12/29 12:42:12 Image size of job updated: 3756
	4  -  MemoryUsage of job (MB)
	3440  -  ResidentSetSize of job (KB)
...
006 (59351.090.000) 12/29 12:47:13 Image size of job updated: 121040
	113  -  MemoryUsage of job (MB)
	115276  -  ResidentSetSize of job (KB)
...
006 (59351.090.000) 12/29 12:52:13 Image size of job updated: 209076
	170  -  MemoryUsage of job (MB)
	173624  -  ResidentSetSize of job (KB)
...
006 (59351.090.000) 12/29 12:57:15 Image size of job updated: 278172
	235  -  MemoryUsage of job (MB)
	240224  -  ResidentSetSize of job (KB)
...
006 (59351.090.000) 12/29 13:02:15 Image size of job updated: 279116
	273  -  MemoryUsage of job (MB)
	279112  -  ResidentSetSize of job (KB)
...
006 (59351.090.000) 12/29 13:07:15 Image size of job updated: 313072
	305  -  MemoryUsage of job (MB)
	311812  -  ResidentSetSize of job (KB)
...
006 (59351.090.000) 12/29 13:12:16 Image size of job updated: 323428
	315  -  MemoryUsage of job (MB)
	321892  -  ResidentSetSize of job (KB)
...
006 (59351.090.000) 12/29 13:17:16 Image size of job updated: 339252
	330  -  MemoryUsage of job (MB)
	337716  -  ResidentSetSize of job (KB)
...
006 (59351.090.000) 12/29 13:22:17 Image size of job updated: 347016
	338  -  MemoryUsage of job (MB)
	345480  -  ResidentSetSize of job (KB)
...
006 (59351.090.000) 12/29 13:27:17 Image size of job updated: 353980
	346  -  MemoryUsage of job (MB)
	353720  -  ResidentSetSize of job (KB)
...
006 (59351.090.000) 12/29 13:32:18 Image size of job updated: 465564
	455  -  MemoryUsage of job (MB)
	464900  -  ResidentSetSize of job (KB)
...
006 (59351.090.000) 12/29 13:37:18 Image size of job updated: 485172
	474  -  MemoryUsage of job (MB)
	484484  -  ResidentSetSize of job (KB)
...
006 (59351.090.000) 12/29 13:42:18 Image size of job updated: 485180
	474  -  MemoryUsage of job (MB)
	484492  -  ResidentSetSize of job (KB)
...
006 (59351.090.000) 12/29 13:47:19 Image size of job updated: 485184
	474  -  MemoryUsage of job (MB)
	484496  -  ResidentSetSize of job (KB)
...
006 (59351.090.000) 12/29 13:52:19 Image size of job updated: 485188
	474  -  MemoryUsage of job (MB)
	484500  -  ResidentSetSize of job (KB)
...
006 (59351.090.000) 12/29 13:57:20 Image size of job updated: 485196
	474  -  MemoryUsage of job (MB)
	484508  -  ResidentSetSize of job (KB)
...
006 (59351.090.000) 12/29 14:02:20 Image size of job updated: 485200
	474  -  MemoryUsage of job (MB)
	484512  -  ResidentSetSize of job (KB)
...
006 (59351.090.000) 12/29 14:07:21 Image size of job updated: 485204
	474  -  MemoryUsage of job (MB)
	484516  -  ResidentSetSize of job (KB)
...
006 (59351.090.000) 12/29 14:12:21 Image size of job updated: 485212
	474  -  MemoryUsage of job (MB)
	484524  -  ResidentSetSize of job (KB)
...
006 (59351.090.000) 12/29 14:17:23 Image size of job updated: 485212
	474  -  MemoryUsage of job (MB)
	484528  -  ResidentSetSize of job (KB)
...
006 (59351.090.000) 12/29 14:22:23 Image size of job updated: 485212
	474  -  MemoryUsage of job (MB)
	484532  -  ResidentSetSize of job (KB)
...
006 (59351.090.000) 12/29 14:27:23 Image size of job updated: 485212
	474  -  MemoryUsage of job (MB)
	484536  -  ResidentSetSize of job (KB)
...
005 (59351.090.000) 12/29 14:31:58 Job terminated.
	(1) Normal termination (return value 0)
		Usr 0 01:23:53, Sys 0 00:00:12  -  Run Remote Usage
		Usr 0 00:00:00, Sys 0 00:00:00  -  Run Local Usage
		Usr 0 01:23:53, Sys 0 00:00:12  -  Total Remote Usage
		Usr 0 00:00:00, Sys 0 00:00:00  -  Total Local Usage
	10952  -  Run Bytes Sent By Job
	196244928  -  Run Bytes Received By Job
	10952  -  Total Bytes Sent By Job
	196244928  -  Total Bytes Received By Job
	Partitionable Resources :     Usage  Request Allocated 
	   Cpus                 :      1.00        1         1 
	   Disk (KB)            : 200000    15728640  16978338 
	   Memory (MB)          :    474        2048      2100 
...
