000 (59346.583.000) 12/23 02:02:56 Job submitted from host: <10.141.225.107:9618?addrs=10.141.225.107-9618&noUDP&sock=2048_560c_3>
...
001 (59346.583.000) 12/23 11:46:45 Job executing on host: <10.141.0.191:9618?addrs=10.141.0.191-9618&noUDP&sock=3754_829e_3>
...
006 (59346.583.000) 12/23 11:46:54 Image size of job updated: 392
	1  -  MemoryUsage of job (MB)
	392  -  ResidentSetSize of job (KB)
...
006 (59346.583.000) 12/23 11:51:55 Image size of job updated: 482440
	299  -  MemoryUsage of job (MB)
	305820  -  ResidentSetSize of job (KB)
...
006 (59346.583.000) 12/23 11:56:55 Image size of job updated: 494036
	310  -  MemoryUsage of job (MB)
	317416  -  ResidentSetSize of job (KB)
...
006 (59346.583.000) 12/23 12:01:56 Image size of job updated: 507648
	322  -  MemoryUsage of job (MB)
	329124  -  ResidentSetSize of job (KB)
...
006 (59346.583.000) 12/23 12:06:56 Image size of job updated: 620652
	432  -  MemoryUsage of job (MB)
	442128  -  ResidentSetSize of job (KB)
...
006 (59346.583.000) 12/23 12:11:58 Image size of job updated: 620660
	432  -  MemoryUsage of job (MB)
	442136  -  ResidentSetSize of job (KB)
...
006 (59346.583.000) 12/23 12:16:58 Image size of job updated: 620672
	432  -  MemoryUsage of job (MB)
	442148  -  ResidentSetSize of job (KB)
...
006 (59346.583.000) 12/23 12:21:58 Image size of job updated: 620672
	432  -  MemoryUsage of job (MB)
	442160  -  ResidentSetSize of job (KB)
...
006 (59346.583.000) 12/23 12:26:59 Image size of job updated: 620672
	432  -  MemoryUsage of job (MB)
	442172  -  ResidentSetSize of job (KB)
...
006 (59346.583.000) 12/23 12:31:59 Image size of job updated: 620672
	432  -  MemoryUsage of job (MB)
	442184  -  ResidentSetSize of job (KB)
...
005 (59346.583.000) 12/23 12:32:35 Job terminated.
	(1) Normal termination (return value 0)
		Usr 0 00:43:08, Sys 0 00:00:10  -  Run Remote Usage
		Usr 0 00:00:00, Sys 0 00:00:00  -  Run Local Usage
		Usr 0 00:43:08, Sys 0 00:00:10  -  Total Remote Usage
		Usr 0 00:00:00, Sys 0 00:00:00  -  Total Local Usage
	11069  -  Run Bytes Sent By Job
	179068608  -  Run Bytes Received By Job
	11069  -  Total Bytes Sent By Job
	179068608  -  Total Bytes Received By Job
	Partitionable Resources :     Usage  Request Allocated 
	   Cpus                 :      0.95        1         1 
	   Disk (KB)            : 175010    15728640  17767151 
	   Memory (MB)          :    432        2048      2100 
...
