000 (215853.471.000) 12/19 01:56:21 Job submitted from host: <10.141.253.27:9618?addrs=10.141.253.27-9618&noUDP&sock=3236953_1928_17>
...
001 (215853.471.000) 12/19 02:48:16 Job executing on host: <10.141.0.184:9618?addrs=10.141.0.184-9618&noUDP&sock=3726_4df7_3>
...
006 (215853.471.000) 12/19 02:48:25 Image size of job updated: 21356
	15  -  MemoryUsage of job (MB)
	14524  -  ResidentSetSize of job (KB)
...
006 (215853.471.000) 12/19 02:53:26 Image size of job updated: 317324
	309  -  MemoryUsage of job (MB)
	316052  -  ResidentSetSize of job (KB)
...
006 (215853.471.000) 12/19 02:58:26 Image size of job updated: 326316
	319  -  MemoryUsage of job (MB)
	325816  -  ResidentSetSize of job (KB)
...
006 (215853.471.000) 12/19 03:03:26 Image size of job updated: 335852
	328  -  MemoryUsage of job (MB)
	335604  -  ResidentSetSize of job (KB)
...
006 (215853.471.000) 12/19 03:08:27 Image size of job updated: 450768
	440  -  MemoryUsage of job (MB)
	449992  -  ResidentSetSize of job (KB)
...
006 (215853.471.000) 12/19 03:13:27 Image size of job updated: 453288
	443  -  MemoryUsage of job (MB)
	453048  -  ResidentSetSize of job (KB)
...
006 (215853.471.000) 12/19 03:18:28 Image size of job updated: 453300
	443  -  MemoryUsage of job (MB)
	453056  -  ResidentSetSize of job (KB)
...
006 (215853.471.000) 12/19 03:23:29 Image size of job updated: 453324
	443  -  MemoryUsage of job (MB)
	453072  -  ResidentSetSize of job (KB)
...
006 (215853.471.000) 12/19 03:28:29 Image size of job updated: 453332
	443  -  MemoryUsage of job (MB)
	453080  -  ResidentSetSize of job (KB)
...
006 (215853.471.000) 12/19 03:33:30 Image size of job updated: 453344
	443  -  MemoryUsage of job (MB)
	453092  -  ResidentSetSize of job (KB)
...
006 (215853.471.000) 12/19 03:38:31 Image size of job updated: 453352
	443  -  MemoryUsage of job (MB)
	453100  -  ResidentSetSize of job (KB)
...
005 (215853.471.000) 12/19 03:39:14 Job terminated.
	(1) Normal termination (return value 0)
		Usr 0 00:47:10, Sys 0 00:00:10  -  Run Remote Usage
		Usr 0 00:00:00, Sys 0 00:00:00  -  Run Local Usage
		Usr 0 00:47:10, Sys 0 00:00:10  -  Total Remote Usage
		Usr 0 00:00:00, Sys 0 00:00:00  -  Total Local Usage
	11041  -  Run Bytes Sent By Job
	92636112  -  Run Bytes Received By Job
	11041  -  Total Bytes Sent By Job
	92636112  -  Total Bytes Received By Job
	Partitionable Resources :     Usage  Request Allocated 
	   Cpus                 :      0.93        1         1 
	   Disk (KB)            : 100000    15728640  17766413 
	   Memory (MB)          :    443        2048      2100 
...
000 (215856.471.000) 12/21 12:00:47 Job submitted from host: <10.141.253.27:9618?addrs=10.141.253.27-9618&noUDP&sock=3236953_1928_17>
...
001 (215856.471.000) 12/21 13:14:08 Job executing on host: <10.141.0.199:9618?addrs=10.141.0.199-9618&noUDP&sock=3812_4b1c_3>
...
006 (215856.471.000) 12/21 13:14:17 Image size of job updated: 868
	1  -  MemoryUsage of job (MB)
	868  -  ResidentSetSize of job (KB)
...
006 (215856.471.000) 12/21 13:19:17 Image size of job updated: 486960
	301  -  MemoryUsage of job (MB)
	307892  -  ResidentSetSize of job (KB)
...
006 (215856.471.000) 12/21 13:24:19 Image size of job updated: 497824
	312  -  MemoryUsage of job (MB)
	318756  -  ResidentSetSize of job (KB)
...
006 (215856.471.000) 12/21 13:29:19 Image size of job updated: 497824
	323  -  MemoryUsage of job (MB)
	329924  -  ResidentSetSize of job (KB)
...
006 (215856.471.000) 12/21 13:34:19 Image size of job updated: 497824
	432  -  MemoryUsage of job (MB)
	441552  -  ResidentSetSize of job (KB)
...
006 (215856.471.000) 12/21 13:39:20 Image size of job updated: 497824
	432  -  MemoryUsage of job (MB)
	441668  -  ResidentSetSize of job (KB)
...
006 (215856.471.000) 12/21 13:44:20 Image size of job updated: 497824
	432  -  MemoryUsage of job (MB)
	441892  -  ResidentSetSize of job (KB)
...
006 (215856.471.000) 12/21 13:49:21 Image size of job updated: 497824
	432  -  MemoryUsage of job (MB)
	441904  -  ResidentSetSize of job (KB)
...
006 (215856.471.000) 12/21 13:54:22 Image size of job updated: 497824
	432  -  MemoryUsage of job (MB)
	441912  -  ResidentSetSize of job (KB)
...
005 (215856.471.000) 12/21 13:58:24 Job terminated.
	(1) Normal termination (return value 0)
		Usr 0 00:41:52, Sys 0 00:00:10  -  Run Remote Usage
		Usr 0 00:00:00, Sys 0 00:00:00  -  Run Local Usage
		Usr 0 00:41:52, Sys 0 00:00:10  -  Total Remote Usage
		Usr 0 00:00:00, Sys 0 00:00:00  -  Total Local Usage
	11072  -  Run Bytes Sent By Job
	139037056  -  Run Bytes Received By Job
	11072  -  Total Bytes Sent By Job
	139037056  -  Total Bytes Received By Job
	Partitionable Resources :     Usage  Request Allocated 
	   Cpus                 :      0.94        1         1 
	   Disk (KB)            : 150000    15728640  17766390 
	   Memory (MB)          :    432        2048      2100 
...
000 (59351.471.000) 12/29 12:27:06 Job submitted from host: <10.141.225.107:9618?addrs=10.141.225.107-9618&noUDP&sock=2048_560c_3>
...
001 (59351.471.000) 12/29 13:15:34 Job executing on host: <10.141.0.131:9618?addrs=10.141.0.131-9618&noUDP&sock=3471_6551_40>
...
006 (59351.471.000) 12/29 13:15:43 Image size of job updated: 36016
	33  -  MemoryUsage of job (MB)
	33216  -  ResidentSetSize of job (KB)
...
006 (59351.471.000) 12/29 13:20:45 Image size of job updated: 322148
	315  -  MemoryUsage of job (MB)
	321900  -  ResidentSetSize of job (KB)
...
006 (59351.471.000) 12/29 13:25:45 Image size of job updated: 335028
	327  -  MemoryUsage of job (MB)
	334724  -  ResidentSetSize of job (KB)
...
006 (59351.471.000) 12/29 13:30:45 Image size of job updated: 450784
	440  -  MemoryUsage of job (MB)
	450424  -  ResidentSetSize of job (KB)
...
006 (59351.471.000) 12/29 13:35:46 Image size of job updated: 450784
	440  -  MemoryUsage of job (MB)
	450524  -  ResidentSetSize of job (KB)
...
006 (59351.471.000) 12/29 13:40:46 Image size of job updated: 450784
	440  -  MemoryUsage of job (MB)
	450536  -  ResidentSetSize of job (KB)
...
006 (59351.471.000) 12/29 13:45:47 Image size of job updated: 450784
	440  -  MemoryUsage of job (MB)
	450548  -  ResidentSetSize of job (KB)
...
006 (59351.471.000) 12/29 13:50:47 Image size of job updated: 450796
	440  -  MemoryUsage of job (MB)
	450560  -  ResidentSetSize of job (KB)
...
006 (59351.471.000) 12/29 13:55:49 Image size of job updated: 450808
	441  -  MemoryUsage of job (MB)
	450572  -  ResidentSetSize of job (KB)
...
005 (59351.471.000) 12/29 13:58:00 Job terminated.
	(1) Normal termination (return value 0)
		Usr 0 00:42:01, Sys 0 00:00:08  -  Run Remote Usage
		Usr 0 00:00:00, Sys 0 00:00:00  -  Run Local Usage
		Usr 0 00:42:01, Sys 0 00:00:08  -  Total Remote Usage
		Usr 0 00:00:00, Sys 0 00:00:00  -  Total Local Usage
	11060  -  Run Bytes Sent By Job
	199644048  -  Run Bytes Received By Job
	11060  -  Total Bytes Sent By Job
	199644048  -  Total Bytes Received By Job
	Partitionable Resources :     Usage  Request Allocated 
	   Cpus                 :      1.00        1         1 
	   Disk (KB)            : 200000    15728640  18812840 
	   Memory (MB)          :    441        2048      2100 
...
