000 (215853.112.000) 12/19 01:56:20 Job submitted from host: <10.141.253.27:9618?addrs=10.141.253.27-9618&noUDP&sock=3236953_1928_17>
...
001 (215853.112.000) 12/19 02:07:35 Job executing on host: <10.141.0.139:9618?addrs=10.141.0.139-9618&noUDP&sock=3202_e257_40>
...
006 (215853.112.000) 12/19 02:07:44 Image size of job updated: 33228
	33  -  MemoryUsage of job (MB)
	32952  -  ResidentSetSize of job (KB)
...
006 (215853.112.000) 12/19 02:12:45 Image size of job updated: 327232
	320  -  MemoryUsage of job (MB)
	327200  -  ResidentSetSize of job (KB)
...
006 (215853.112.000) 12/19 02:17:46 Image size of job updated: 337300
	330  -  MemoryUsage of job (MB)
	337268  -  ResidentSetSize of job (KB)
...
006 (215853.112.000) 12/19 02:22:46 Image size of job updated: 347476
	340  -  MemoryUsage of job (MB)
	347444  -  ResidentSetSize of job (KB)
...
006 (215853.112.000) 12/19 02:27:46 Image size of job updated: 455244
	445  -  MemoryUsage of job (MB)
	455212  -  ResidentSetSize of job (KB)
...
006 (215853.112.000) 12/19 02:32:47 Image size of job updated: 455256
	445  -  MemoryUsage of job (MB)
	455224  -  ResidentSetSize of job (KB)
...
006 (215853.112.000) 12/19 02:37:47 Image size of job updated: 455264
	445  -  MemoryUsage of job (MB)
	455232  -  ResidentSetSize of job (KB)
...
006 (215853.112.000) 12/19 02:42:47 Image size of job updated: 455280
	445  -  MemoryUsage of job (MB)
	455248  -  ResidentSetSize of job (KB)
...
006 (215853.112.000) 12/19 02:47:48 Image size of job updated: 455392
	445  -  MemoryUsage of job (MB)
	455360  -  ResidentSetSize of job (KB)
...
006 (215853.112.000) 12/19 02:52:48 Image size of job updated: 455404
	445  -  MemoryUsage of job (MB)
	455372  -  ResidentSetSize of job (KB)
...
006 (215853.112.000) 12/19 02:55:25 Image size of job updated: 455964
	445  -  MemoryUsage of job (MB)
	455372  -  ResidentSetSize of job (KB)
...
005 (215853.112.000) 12/19 02:55:25 Job terminated.
	(1) Normal termination (return value 0)
		Usr 0 00:46:36, Sys 0 00:00:09  -  Run Remote Usage
		Usr 0 00:00:00, Sys 0 00:00:00  -  Run Local Usage
		Usr 0 00:46:36, Sys 0 00:00:09  -  Total Remote Usage
		Usr 0 00:00:00, Sys 0 00:00:00  -  Total Local Usage
	11033  -  Run Bytes Sent By Job
	90197008  -  Run Bytes Received By Job
	11033  -  Total Bytes Sent By Job
	90197008  -  Total Bytes Received By Job
	Partitionable Resources :     Usage  Request Allocated 
	   Cpus                 :      1.00        1         1 
	   Disk (KB)            : 100000    15728640  18812849 
	   Memory (MB)          :    445        2048      2100 
...
000 (215856.112.000) 12/21 12:00:46 Job submitted from host: <10.141.253.27:9618?addrs=10.141.253.27-9618&noUDP&sock=3236953_1928_17>
...
001 (215856.112.000) 12/21 12:19:33 Job executing on host: <10.141.0.112:9618?addrs=10.141.0.112-9618&noUDP&sock=3364_00af_28>
...
006 (215856.112.000) 12/21 12:19:41 Image size of job updated: 3640
	4  -  MemoryUsage of job (MB)
	3424  -  ResidentSetSize of job (KB)
...
006 (215856.112.000) 12/21 12:24:41 Image size of job updated: 331636
	304  -  MemoryUsage of job (MB)
	311016  -  ResidentSetSize of job (KB)
...
006 (215856.112.000) 12/21 12:29:42 Image size of job updated: 331636
	321  -  MemoryUsage of job (MB)
	328452  -  ResidentSetSize of job (KB)
...
006 (215856.112.000) 12/21 12:34:42 Image size of job updated: 338164
	331  -  MemoryUsage of job (MB)
	337936  -  ResidentSetSize of job (KB)
...
006 (215856.112.000) 12/21 12:39:43 Image size of job updated: 347680
	340  -  MemoryUsage of job (MB)
	347452  -  ResidentSetSize of job (KB)
...
006 (215856.112.000) 12/21 12:44:44 Image size of job updated: 442744
	433  -  MemoryUsage of job (MB)
	442516  -  ResidentSetSize of job (KB)
...
006 (215856.112.000) 12/21 12:54:33 Image size of job updated: 442752
	433  -  MemoryUsage of job (MB)
	442524  -  ResidentSetSize of job (KB)
...
006 (215856.112.000) 12/21 13:09:01 Image size of job updated: 442792
	433  -  MemoryUsage of job (MB)
	442564  -  ResidentSetSize of job (KB)
...
006 (215856.112.000) 12/21 13:13:45 Image size of job updated: 6298372
	433  -  MemoryUsage of job (MB)
	442564  -  ResidentSetSize of job (KB)
...
005 (215856.112.000) 12/21 13:13:45 Job terminated.
	(1) Normal termination (return value 0)
		Usr 0 00:52:07, Sys 0 00:00:11  -  Run Remote Usage
		Usr 0 00:00:00, Sys 0 00:00:00  -  Run Local Usage
		Usr 0 00:52:07, Sys 0 00:00:11  -  Total Remote Usage
		Usr 0 00:00:00, Sys 0 00:00:00  -  Total Local Usage
	11026  -  Run Bytes Sent By Job
	138655872  -  Run Bytes Received By Job
	11026  -  Total Bytes Sent By Job
	138655872  -  Total Bytes Received By Job
	Partitionable Resources :     Usage  Request Allocated 
	   Cpus                 :      0.98        1         1 
	   Disk (KB)            : 150000    15728640  18163347 
	   Memory (MB)          :    433        2048      2100 
...
000 (59351.112.000) 12/29 12:27:04 Job submitted from host: <10.141.225.107:9618?addrs=10.141.225.107-9618&noUDP&sock=2048_560c_3>
...
001 (59351.112.000) 12/29 12:33:14 Job executing on host: <10.141.0.131:9618?addrs=10.141.0.131-9618&noUDP&sock=3471_6551_40>
...
006 (59351.112.000) 12/29 12:33:23 Image size of job updated: 33538276
	4  -  MemoryUsage of job (MB)
	3424  -  ResidentSetSize of job (KB)
...
006 (59351.112.000) 12/29 12:38:25 Image size of job updated: 33538276
	88  -  MemoryUsage of job (MB)
	89668  -  ResidentSetSize of job (KB)
...
006 (59351.112.000) 12/29 12:43:25 Image size of job updated: 33538276
	305  -  MemoryUsage of job (MB)
	312004  -  ResidentSetSize of job (KB)
...
006 (59351.112.000) 12/29 12:48:25 Image size of job updated: 33538276
	329  -  MemoryUsage of job (MB)
	336444  -  ResidentSetSize of job (KB)
...
006 (59351.112.000) 12/29 12:53:26 Image size of job updated: 33538276
	432  -  MemoryUsage of job (MB)
	441464  -  ResidentSetSize of job (KB)
...
006 (59351.112.000) 12/29 12:58:26 Image size of job updated: 33538276
	470  -  MemoryUsage of job (MB)
	480444  -  ResidentSetSize of job (KB)
...
006 (59351.112.000) 12/29 13:03:26 Image size of job updated: 33538276
	470  -  MemoryUsage of job (MB)
	480460  -  ResidentSetSize of job (KB)
...
006 (59351.112.000) 12/29 13:08:27 Image size of job updated: 33538276
	470  -  MemoryUsage of job (MB)
	480476  -  ResidentSetSize of job (KB)
...
006 (59351.112.000) 12/29 13:13:27 Image size of job updated: 33538276
	470  -  MemoryUsage of job (MB)
	480492  -  ResidentSetSize of job (KB)
...
005 (59351.112.000) 12/29 13:15:26 Job terminated.
	(1) Normal termination (return value 0)
		Usr 0 00:33:34, Sys 0 00:00:08  -  Run Remote Usage
		Usr 0 00:00:00, Sys 0 00:00:00  -  Run Local Usage
		Usr 0 00:33:34, Sys 0 00:00:08  -  Total Remote Usage
		Usr 0 00:00:00, Sys 0 00:00:00  -  Total Local Usage
	11033  -  Run Bytes Sent By Job
	196255328  -  Run Bytes Received By Job
	11033  -  Total Bytes Sent By Job
	196255328  -  Total Bytes Received By Job
	Partitionable Resources :     Usage  Request Allocated 
	   Cpus                 :      1.00        1         1 
	   Disk (KB)            : 200000    15728640  18812840 
	   Memory (MB)          :    470        2048      2100 
...
