000 (59345.275.000) 12/23 02:01:39 Job submitted from host: <10.141.225.107:9618?addrs=10.141.225.107-9618&noUDP&sock=2048_560c_3>
...
001 (59345.275.000) 12/23 04:11:02 Job executing on host: <10.141.0.194:9618?addrs=10.141.0.194-9618&noUDP&sock=3780_5814_3>
...
006 (59345.275.000) 12/23 04:11:11 Image size of job updated: 1012
	1  -  MemoryUsage of job (MB)
	692  -  ResidentSetSize of job (KB)
...
006 (59345.275.000) 12/23 04:16:12 Image size of job updated: 490420
	304  -  MemoryUsage of job (MB)
	310488  -  ResidentSetSize of job (KB)
...
006 (59345.275.000) 12/23 04:21:12 Image size of job updated: 490420
	314  -  MemoryUsage of job (MB)
	321024  -  ResidentSetSize of job (KB)
...
006 (59345.275.000) 12/23 04:26:13 Image size of job updated: 490420
	326  -  MemoryUsage of job (MB)
	333268  -  ResidentSetSize of job (KB)
...
006 (59345.275.000) 12/23 04:31:13 Image size of job updated: 490420
	437  -  MemoryUsage of job (MB)
	447072  -  ResidentSetSize of job (KB)
...
006 (59345.275.000) 12/23 04:36:14 Image size of job updated: 490420
	437  -  MemoryUsage of job (MB)
	447084  -  ResidentSetSize of job (KB)
...
006 (59345.275.000) 12/23 04:41:15 Image size of job updated: 490420
	437  -  MemoryUsage of job (MB)
	447096  -  ResidentSetSize of job (KB)
...
006 (59345.275.000) 12/23 04:46:15 Image size of job updated: 490420
	437  -  MemoryUsage of job (MB)
	447108  -  ResidentSetSize of job (KB)
...
006 (59345.275.000) 12/23 04:51:16 Image size of job updated: 490420
	437  -  MemoryUsage of job (MB)
	447120  -  ResidentSetSize of job (KB)
...
006 (59345.275.000) 12/23 04:56:17 Image size of job updated: 490420
	437  -  MemoryUsage of job (MB)
	447128  -  ResidentSetSize of job (KB)
...
005 (59345.275.000) 12/23 04:58:22 Job terminated.
	(1) Normal termination (return value 0)
		Usr 0 00:44:06, Sys 0 00:00:10  -  Run Remote Usage
		Usr 0 00:00:00, Sys 0 00:00:00  -  Run Local Usage
		Usr 0 00:44:06, Sys 0 00:00:10  -  Total Remote Usage
		Usr 0 00:00:00, Sys 0 00:00:00  -  Total Local Usage
	11071  -  Run Bytes Sent By Job
	106599256  -  Run Bytes Received By Job
	11071  -  Total Bytes Sent By Job
	106599256  -  Total Bytes Received By Job
	Partitionable Resources :     Usage  Request Allocated 
	   Cpus                 :      0.96        1         1 
	   Disk (KB)            : 104248    15728640  17766260 
	   Memory (MB)          :    437        2048      2100 
...
