000 (59345.638.000) 12/23 02:01:40 Job submitted from host: <10.141.225.107:9618?addrs=10.141.225.107-9618&noUDP&sock=2048_560c_3>
...
001 (59345.638.000) 12/23 05:38:27 Job executing on host: <10.141.0.143:9618?addrs=10.141.0.143-9618&noUDP&sock=3438_c2b1_40>
...
006 (59345.638.000) 12/23 05:38:36 Image size of job updated: 37508
	35  -  MemoryUsage of job (MB)
	35148  -  ResidentSetSize of job (KB)
...
006 (59345.638.000) 12/23 05:43:38 Image size of job updated: 490916
	301  -  MemoryUsage of job (MB)
	307824  -  ResidentSetSize of job (KB)
...
006 (59345.638.000) 12/23 05:48:38 Image size of job updated: 501508
	311  -  MemoryUsage of job (MB)
	318416  -  ResidentSetSize of job (KB)
...
006 (59345.638.000) 12/23 05:53:38 Image size of job updated: 512332
	322  -  MemoryUsage of job (MB)
	329236  -  ResidentSetSize of job (KB)
...
006 (59345.638.000) 12/23 05:58:39 Image size of job updated: 633048
	433  -  MemoryUsage of job (MB)
	443172  -  ResidentSetSize of job (KB)
...
006 (59345.638.000) 12/23 06:03:39 Image size of job updated: 633060
	433  -  MemoryUsage of job (MB)
	443184  -  ResidentSetSize of job (KB)
...
006 (59345.638.000) 12/23 06:08:39 Image size of job updated: 633072
	433  -  MemoryUsage of job (MB)
	443196  -  ResidentSetSize of job (KB)
...
006 (59345.638.000) 12/23 06:13:40 Image size of job updated: 633084
	433  -  MemoryUsage of job (MB)
	443208  -  ResidentSetSize of job (KB)
...
006 (59345.638.000) 12/23 06:18:40 Image size of job updated: 633096
	433  -  MemoryUsage of job (MB)
	443220  -  ResidentSetSize of job (KB)
...
006 (59345.638.000) 12/23 06:23:41 Image size of job updated: 633104
	433  -  MemoryUsage of job (MB)
	443228  -  ResidentSetSize of job (KB)
...
006 (59345.638.000) 12/23 06:24:32 Image size of job updated: 633108
	433  -  MemoryUsage of job (MB)
	443228  -  ResidentSetSize of job (KB)
...
005 (59345.638.000) 12/23 06:24:32 Job terminated.
	(1) Normal termination (return value 0)
		Usr 0 00:45:03, Sys 0 00:00:10  -  Run Remote Usage
		Usr 0 00:00:00, Sys 0 00:00:00  -  Run Local Usage
		Usr 0 00:45:03, Sys 0 00:00:10  -  Total Remote Usage
		Usr 0 00:00:00, Sys 0 00:00:00  -  Total Local Usage
	11033  -  Run Bytes Sent By Job
	120821896  -  Run Bytes Received By Job
	11033  -  Total Bytes Sent By Job
	120821896  -  Total Bytes Received By Job
	Partitionable Resources :     Usage  Request Allocated 
	   Cpus                 :      0.99        1         1 
	   Disk (KB)            : 118133    15728640  18812849 
	   Memory (MB)          :    433        2048      2100 
...
