000 (215853.601.000) 12/19 01:56:21 Job submitted from host: <10.141.253.27:9618?addrs=10.141.253.27-9618&noUDP&sock=3236953_1928_17>
...
001 (215853.601.000) 12/19 03:06:24 Job executing on host: <10.141.0.184:9618?addrs=10.141.0.184-9618&noUDP&sock=3726_4df7_3>
...
006 (215853.601.000) 12/19 03:06:32 Image size of job updated: 784
	1  -  MemoryUsage of job (MB)
	696  -  ResidentSetSize of job (KB)
...
006 (215853.601.000) 12/19 03:11:32 Image size of job updated: 486048
	302  -  MemoryUsage of job (MB)
	308820  -  ResidentSetSize of job (KB)
...
006 (215853.601.000) 12/19 03:16:33 Image size of job updated: 486048
	313  -  MemoryUsage of job (MB)
	320164  -  ResidentSetSize of job (KB)
...
006 (215853.601.000) 12/19 03:21:34 Image size of job updated: 486048
	324  -  MemoryUsage of job (MB)
	331204  -  ResidentSetSize of job (KB)
...
006 (215853.601.000) 12/19 03:26:34 Image size of job updated: 486048
	455  -  MemoryUsage of job (MB)
	465608  -  ResidentSetSize of job (KB)
...
006 (215853.601.000) 12/19 03:31:35 Image size of job updated: 486048
	455  -  MemoryUsage of job (MB)
	465716  -  ResidentSetSize of job (KB)
...
006 (215853.601.000) 12/19 03:36:36 Image size of job updated: 486048
	455  -  MemoryUsage of job (MB)
	465728  -  ResidentSetSize of job (KB)
...
006 (215853.601.000) 12/19 03:41:36 Image size of job updated: 486048
	455  -  MemoryUsage of job (MB)
	465740  -  ResidentSetSize of job (KB)
...
006 (215853.601.000) 12/19 03:46:37 Image size of job updated: 486048
	455  -  MemoryUsage of job (MB)
	465748  -  ResidentSetSize of job (KB)
...
006 (215853.601.000) 12/19 03:51:37 Image size of job updated: 486048
	455  -  MemoryUsage of job (MB)
	465760  -  ResidentSetSize of job (KB)
...
005 (215853.601.000) 12/19 03:54:46 Job terminated.
	(1) Normal termination (return value 0)
		Usr 0 00:45:41, Sys 0 00:00:10  -  Run Remote Usage
		Usr 0 00:00:00, Sys 0 00:00:00  -  Run Local Usage
		Usr 0 00:45:41, Sys 0 00:00:10  -  Total Remote Usage
		Usr 0 00:00:00, Sys 0 00:00:00  -  Total Local Usage
	10974  -  Run Bytes Sent By Job
	100415456  -  Run Bytes Received By Job
	10974  -  Total Bytes Sent By Job
	100415456  -  Total Bytes Received By Job
	Partitionable Resources :     Usage  Request Allocated 
	   Cpus                 :      0.95        1         1 
	   Disk (KB)            : 100000    15728640  17766413 
	   Memory (MB)          :    455        2048      2100 
...
000 (215856.601.000) 12/21 12:00:47 Job submitted from host: <10.141.253.27:9618?addrs=10.141.253.27-9618&noUDP&sock=3236953_1928_17>
...
001 (215856.601.000) 12/21 13:51:08 Job executing on host: <10.141.0.149:9618?addrs=10.141.0.149-9618&noUDP&sock=3521_b10d_40>
...
006 (215856.601.000) 12/21 13:51:16 Image size of job updated: 14812
	13  -  MemoryUsage of job (MB)
	13168  -  ResidentSetSize of job (KB)
...
006 (215856.601.000) 12/21 13:56:16 Image size of job updated: 333168
	325  -  MemoryUsage of job (MB)
	332604  -  ResidentSetSize of job (KB)
...
006 (215856.601.000) 12/21 14:01:17 Image size of job updated: 343504
	336  -  MemoryUsage of job (MB)
	343088  -  ResidentSetSize of job (KB)
...
006 (215856.601.000) 12/21 14:06:18 Image size of job updated: 353800
	346  -  MemoryUsage of job (MB)
	353384  -  ResidentSetSize of job (KB)
...
006 (215856.601.000) 12/21 14:11:18 Image size of job updated: 480948
	470  -  MemoryUsage of job (MB)
	480524  -  ResidentSetSize of job (KB)
...
006 (215856.601.000) 12/21 14:16:20 Image size of job updated: 480960
	470  -  MemoryUsage of job (MB)
	480536  -  ResidentSetSize of job (KB)
...
006 (215856.601.000) 12/21 14:21:20 Image size of job updated: 480968
	470  -  MemoryUsage of job (MB)
	480544  -  ResidentSetSize of job (KB)
...
006 (215856.601.000) 12/21 14:26:20 Image size of job updated: 480984
	470  -  MemoryUsage of job (MB)
	480560  -  ResidentSetSize of job (KB)
...
006 (215856.601.000) 12/21 14:31:21 Image size of job updated: 480992
	470  -  MemoryUsage of job (MB)
	480568  -  ResidentSetSize of job (KB)
...
006 (215856.601.000) 12/21 14:36:21 Image size of job updated: 481004
	470  -  MemoryUsage of job (MB)
	480580  -  ResidentSetSize of job (KB)
...
006 (215856.601.000) 12/21 14:37:46 Image size of job updated: 6344980
	470  -  MemoryUsage of job (MB)
	480580  -  ResidentSetSize of job (KB)
...
005 (215856.601.000) 12/21 14:37:47 Job terminated.
	(1) Normal termination (return value 0)
		Usr 0 00:45:49, Sys 0 00:00:10  -  Run Remote Usage
		Usr 0 00:00:00, Sys 0 00:00:00  -  Run Local Usage
		Usr 0 00:45:49, Sys 0 00:00:10  -  Total Remote Usage
		Usr 0 00:00:00, Sys 0 00:00:00  -  Total Local Usage
	10996  -  Run Bytes Sent By Job
	139582208  -  Run Bytes Received By Job
	10996  -  Total Bytes Sent By Job
	139582208  -  Total Bytes Received By Job
	Partitionable Resources :     Usage  Request Allocated 
	   Cpus                 :      0.99        1         1 
	   Disk (KB)            : 150000    15728640  18812836 
	   Memory (MB)          :    470        2048      2100 
...
000 (59351.601.000) 12/29 12:27:07 Job submitted from host: <10.141.225.107:9618?addrs=10.141.225.107-9618&noUDP&sock=2048_560c_3>
...
001 (59351.601.000) 12/29 13:24:10 Job executing on host: <10.141.0.103:9618?addrs=10.141.0.103-9618&noUDP&sock=4541_53a7_28>
...
006 (59351.601.000) 12/29 13:24:19 Image size of job updated: 936
	1  -  MemoryUsage of job (MB)
	936  -  ResidentSetSize of job (KB)
...
006 (59351.601.000) 12/29 13:29:20 Image size of job updated: 470644
	287  -  MemoryUsage of job (MB)
	293340  -  ResidentSetSize of job (KB)
...
006 (59351.601.000) 12/29 13:34:20 Image size of job updated: 485796
	301  -  MemoryUsage of job (MB)
	307920  -  ResidentSetSize of job (KB)
...
006 (59351.601.000) 12/29 13:39:22 Image size of job updated: 495196
	309  -  MemoryUsage of job (MB)
	315396  -  ResidentSetSize of job (KB)
...
006 (59351.601.000) 12/29 13:44:22 Image size of job updated: 502808
	316  -  MemoryUsage of job (MB)
	323008  -  ResidentSetSize of job (KB)
...
006 (59351.601.000) 12/29 13:49:23 Image size of job updated: 537348
	350  -  MemoryUsage of job (MB)
	357548  -  ResidentSetSize of job (KB)
...
006 (59351.601.000) 12/29 13:54:23 Image size of job updated: 537348
	413  -  MemoryUsage of job (MB)
	422652  -  ResidentSetSize of job (KB)
...
006 (59351.601.000) 12/29 13:59:23 Image size of job updated: 537348
	413  -  MemoryUsage of job (MB)
	422760  -  ResidentSetSize of job (KB)
...
006 (59351.601.000) 12/29 14:04:24 Image size of job updated: 537348
	413  -  MemoryUsage of job (MB)
	422768  -  ResidentSetSize of job (KB)
...
006 (59351.601.000) 12/29 14:09:24 Image size of job updated: 537348
	413  -  MemoryUsage of job (MB)
	422772  -  ResidentSetSize of job (KB)
...
006 (59351.601.000) 12/29 14:14:25 Image size of job updated: 537348
	413  -  MemoryUsage of job (MB)
	422776  -  ResidentSetSize of job (KB)
...
006 (59351.601.000) 12/29 14:19:25 Image size of job updated: 537348
	413  -  MemoryUsage of job (MB)
	422780  -  ResidentSetSize of job (KB)
...
006 (59351.601.000) 12/29 14:24:26 Image size of job updated: 537348
	413  -  MemoryUsage of job (MB)
	422792  -  ResidentSetSize of job (KB)
...
006 (59351.601.000) 12/29 14:29:26 Image size of job updated: 537348
	413  -  MemoryUsage of job (MB)
	422796  -  ResidentSetSize of job (KB)
...
006 (59351.601.000) 12/29 14:34:27 Image size of job updated: 537348
	413  -  MemoryUsage of job (MB)
	422800  -  ResidentSetSize of job (KB)
...
006 (59351.601.000) 12/29 14:39:27 Image size of job updated: 537348
	413  -  MemoryUsage of job (MB)
	422804  -  ResidentSetSize of job (KB)
...
006 (59351.601.000) 12/29 14:44:28 Image size of job updated: 537348
	413  -  MemoryUsage of job (MB)
	422812  -  ResidentSetSize of job (KB)
...
005 (59351.601.000) 12/29 14:48:39 Job terminated.
	(1) Normal termination (return value 0)
		Usr 0 01:22:09, Sys 0 00:00:12  -  Run Remote Usage
		Usr 0 00:00:00, Sys 0 00:00:00  -  Run Local Usage
		Usr 0 01:22:09, Sys 0 00:00:12  -  Total Remote Usage
		Usr 0 00:00:00, Sys 0 00:00:00  -  Total Local Usage
	10953  -  Run Bytes Sent By Job
	203861632  -  Run Bytes Received By Job
	10953  -  Total Bytes Sent By Job
	203861632  -  Total Bytes Received By Job
	Partitionable Resources :     Usage  Request Allocated 
	   Cpus                 :      1.00        1         1 
	   Disk (KB)            : 200000    15728640  16978952 
	   Memory (MB)          :    413        2048      2100 
...
