000 (59345.174.000) 12/23 02:01:39 Job submitted from host: <10.141.225.107:9618?addrs=10.141.225.107-9618&noUDP&sock=2048_560c_3>
...
001 (59345.174.000) 12/23 03:34:07 Job executing on host: <10.141.0.177:9618?addrs=10.141.0.177-9618&noUDP&sock=3021_bbb3_3>
...
006 (59345.174.000) 12/23 03:34:15 Image size of job updated: 1664
	2  -  MemoryUsage of job (MB)
	1664  -  ResidentSetSize of job (KB)
...
006 (59345.174.000) 12/23 03:39:15 Image size of job updated: 514620
	324  -  MemoryUsage of job (MB)
	331532  -  ResidentSetSize of job (KB)
...
006 (59345.174.000) 12/23 03:44:16 Image size of job updated: 525072
	334  -  MemoryUsage of job (MB)
	341984  -  ResidentSetSize of job (KB)
...
006 (59345.174.000) 12/23 03:49:16 Image size of job updated: 535468
	345  -  MemoryUsage of job (MB)
	352380  -  ResidentSetSize of job (KB)
...
006 (59345.174.000) 12/23 03:54:16 Image size of job updated: 656096
	456  -  MemoryUsage of job (MB)
	466224  -  ResidentSetSize of job (KB)
...
006 (59345.174.000) 12/23 03:59:17 Image size of job updated: 656212
	456  -  MemoryUsage of job (MB)
	466340  -  ResidentSetSize of job (KB)
...
006 (59345.174.000) 12/23 04:04:17 Image size of job updated: 656224
	456  -  MemoryUsage of job (MB)
	466352  -  ResidentSetSize of job (KB)
...
006 (59345.174.000) 12/23 04:09:18 Image size of job updated: 656236
	456  -  MemoryUsage of job (MB)
	466364  -  ResidentSetSize of job (KB)
...
006 (59345.174.000) 12/23 04:14:19 Image size of job updated: 656248
	456  -  MemoryUsage of job (MB)
	466376  -  ResidentSetSize of job (KB)
...
006 (59345.174.000) 12/23 04:19:19 Image size of job updated: 656260
	456  -  MemoryUsage of job (MB)
	466388  -  ResidentSetSize of job (KB)
...
006 (59345.174.000) 12/23 04:20:59 Image size of job updated: 656528
	456  -  MemoryUsage of job (MB)
	466388  -  ResidentSetSize of job (KB)
...
005 (59345.174.000) 12/23 04:20:59 Job terminated.
	(1) Normal termination (return value 0)
		Usr 0 00:44:52, Sys 0 00:00:09  -  Run Remote Usage
		Usr 0 00:00:00, Sys 0 00:00:00  -  Run Local Usage
		Usr 0 00:44:52, Sys 0 00:00:09  -  Total Remote Usage
		Usr 0 00:00:00, Sys 0 00:00:00  -  Total Local Usage
	10995  -  Run Bytes Sent By Job
	104705288  -  Run Bytes Received By Job
	10995  -  Total Bytes Sent By Job
	104705288  -  Total Bytes Received By Job
	Partitionable Resources :     Usage  Request Allocated 
	   Cpus                 :      0.98        1         1 
	   Disk (KB)            : 102399    15728640  18812708 
	   Memory (MB)          :    456        2048      2100 
...
