000 (215853.516.000) 12/19 01:56:21 Job submitted from host: <10.141.253.27:9618?addrs=10.141.253.27-9618&noUDP&sock=3236953_1928_17>
...
001 (215853.516.000) 12/19 02:50:28 Job executing on host: <10.141.0.144:9618?addrs=10.141.0.144-9618&noUDP&sock=3243_01b9_40>
...
006 (215853.516.000) 12/19 02:50:37 Image size of job updated: 5748
	6  -  MemoryUsage of job (MB)
	5224  -  ResidentSetSize of job (KB)
...
006 (215853.516.000) 12/19 02:55:38 Image size of job updated: 365012
	318  -  MemoryUsage of job (MB)
	325104  -  ResidentSetSize of job (KB)
...
006 (215853.516.000) 12/19 03:00:38 Image size of job updated: 375912
	329  -  MemoryUsage of job (MB)
	336004  -  ResidentSetSize of job (KB)
...
006 (215853.516.000) 12/19 03:05:38 Image size of job updated: 375912
	339  -  MemoryUsage of job (MB)
	346572  -  ResidentSetSize of job (KB)
...
006 (215853.516.000) 12/19 03:10:39 Image size of job updated: 459652
	449  -  MemoryUsage of job (MB)
	459476  -  ResidentSetSize of job (KB)
...
006 (215853.516.000) 12/19 03:15:39 Image size of job updated: 459768
	449  -  MemoryUsage of job (MB)
	459592  -  ResidentSetSize of job (KB)
...
006 (215853.516.000) 12/19 03:20:40 Image size of job updated: 459780
	449  -  MemoryUsage of job (MB)
	459604  -  ResidentSetSize of job (KB)
...
006 (215853.516.000) 12/19 03:25:41 Image size of job updated: 459792
	449  -  MemoryUsage of job (MB)
	459616  -  ResidentSetSize of job (KB)
...
006 (215853.516.000) 12/19 03:30:41 Image size of job updated: 459804
	449  -  MemoryUsage of job (MB)
	459628  -  ResidentSetSize of job (KB)
...
006 (215853.516.000) 12/19 03:35:42 Image size of job updated: 459812
	449  -  MemoryUsage of job (MB)
	459636  -  ResidentSetSize of job (KB)
...
006 (215853.516.000) 12/19 03:36:34 Image size of job updated: 6346340
	449  -  MemoryUsage of job (MB)
	459636  -  ResidentSetSize of job (KB)
...
005 (215853.516.000) 12/19 03:36:34 Job terminated.
	(1) Normal termination (return value 0)
		Usr 0 00:45:16, Sys 0 00:00:10  -  Run Remote Usage
		Usr 0 00:00:00, Sys 0 00:00:00  -  Run Local Usage
		Usr 0 00:45:16, Sys 0 00:00:10  -  Total Remote Usage
		Usr 0 00:00:00, Sys 0 00:00:00  -  Total Local Usage
	10966  -  Run Bytes Sent By Job
	94389096  -  Run Bytes Received By Job
	10966  -  Total Bytes Sent By Job
	94389096  -  Total Bytes Received By Job
	Partitionable Resources :     Usage  Request Allocated 
	   Cpus                 :      1.00        1         1 
	   Disk (KB)            : 100000    15728640  18812848 
	   Memory (MB)          :    449        2048      2100 
...
000 (215856.516.000) 12/21 12:00:47 Job submitted from host: <10.141.253.27:9618?addrs=10.141.253.27-9618&noUDP&sock=3236953_1928_17>
...
001 (215856.516.000) 12/21 13:27:51 Job executing on host: <10.141.0.114:9618?addrs=10.141.0.114-9618&noUDP&sock=3191_56cc_28>
...
006 (215856.516.000) 12/21 13:27:59 Image size of job updated: 868
	1  -  MemoryUsage of job (MB)
	664  -  ResidentSetSize of job (KB)
...
006 (215856.516.000) 12/21 13:32:59 Image size of job updated: 334000
	326  -  MemoryUsage of job (MB)
	333692  -  ResidentSetSize of job (KB)
...
006 (215856.516.000) 12/21 13:38:00 Image size of job updated: 343528
	336  -  MemoryUsage of job (MB)
	343220  -  ResidentSetSize of job (KB)
...
006 (215856.516.000) 12/21 13:43:00 Image size of job updated: 353464
	345  -  MemoryUsage of job (MB)
	353156  -  ResidentSetSize of job (KB)
...
006 (215856.516.000) 12/21 13:48:01 Image size of job updated: 462160
	449  -  MemoryUsage of job (MB)
	459356  -  ResidentSetSize of job (KB)
...
006 (215856.516.000) 12/21 13:53:02 Image size of job updated: 481416
	468  -  MemoryUsage of job (MB)
	478612  -  ResidentSetSize of job (KB)
...
006 (215856.516.000) 12/21 13:58:02 Image size of job updated: 481424
	468  -  MemoryUsage of job (MB)
	478620  -  ResidentSetSize of job (KB)
...
006 (215856.516.000) 12/21 14:03:04 Image size of job updated: 481424
	468  -  MemoryUsage of job (MB)
	478632  -  ResidentSetSize of job (KB)
...
006 (215856.516.000) 12/21 14:08:04 Image size of job updated: 481424
	468  -  MemoryUsage of job (MB)
	478644  -  ResidentSetSize of job (KB)
...
006 (215856.516.000) 12/21 14:13:04 Image size of job updated: 481424
	468  -  MemoryUsage of job (MB)
	478652  -  ResidentSetSize of job (KB)
...
006 (215856.516.000) 12/21 14:18:05 Image size of job updated: 481424
	468  -  MemoryUsage of job (MB)
	478664  -  ResidentSetSize of job (KB)
...
005 (215856.516.000) 12/21 14:20:15 Job terminated.
	(1) Normal termination (return value 0)
		Usr 0 00:51:24, Sys 0 00:00:11  -  Run Remote Usage
		Usr 0 00:00:00, Sys 0 00:00:00  -  Run Local Usage
		Usr 0 00:51:24, Sys 0 00:00:11  -  Total Remote Usage
		Usr 0 00:00:00, Sys 0 00:00:00  -  Total Local Usage
	10987  -  Run Bytes Sent By Job
	139205376  -  Run Bytes Received By Job
	10987  -  Total Bytes Sent By Job
	139205376  -  Total Bytes Received By Job
	Partitionable Resources :     Usage  Request Allocated 
	   Cpus                 :      0.97        1         1 
	   Disk (KB)            : 150000    15728640  18163331 
	   Memory (MB)          :    468        2048      2100 
...
000 (59351.516.000) 12/29 12:27:06 Job submitted from host: <10.141.225.107:9618?addrs=10.141.225.107-9618&noUDP&sock=2048_560c_3>
...
001 (59351.516.000) 12/29 13:19:24 Job executing on host: <10.141.0.198:9618?addrs=10.141.0.198-9618&noUDP&sock=3694_5aef_3>
...
006 (59351.516.000) 12/29 13:19:33 Image size of job updated: 15416
	15  -  MemoryUsage of job (MB)
	14356  -  ResidentSetSize of job (KB)
...
006 (59351.516.000) 12/29 13:24:35 Image size of job updated: 336876
	329  -  MemoryUsage of job (MB)
	335940  -  ResidentSetSize of job (KB)
...
006 (59351.516.000) 12/29 13:29:35 Image size of job updated: 456684
	446  -  MemoryUsage of job (MB)
	455692  -  ResidentSetSize of job (KB)
...
006 (59351.516.000) 12/29 13:34:35 Image size of job updated: 456708
	446  -  MemoryUsage of job (MB)
	455716  -  ResidentSetSize of job (KB)
...
006 (59351.516.000) 12/29 13:39:36 Image size of job updated: 456708
	446  -  MemoryUsage of job (MB)
	455732  -  ResidentSetSize of job (KB)
...
006 (59351.516.000) 12/29 13:44:36 Image size of job updated: 456708
	446  -  MemoryUsage of job (MB)
	455744  -  ResidentSetSize of job (KB)
...
005 (59351.516.000) 12/29 13:45:55 Job terminated.
	(1) Normal termination (return value 0)
		Usr 0 00:26:09, Sys 0 00:00:09  -  Run Remote Usage
		Usr 0 00:00:00, Sys 0 00:00:00  -  Run Local Usage
		Usr 0 00:26:09, Sys 0 00:00:09  -  Total Remote Usage
		Usr 0 00:00:00, Sys 0 00:00:00  -  Total Local Usage
	11004  -  Run Bytes Sent By Job
	200938208  -  Run Bytes Received By Job
	11004  -  Total Bytes Sent By Job
	200938208  -  Total Bytes Received By Job
	Partitionable Resources :     Usage  Request Allocated 
	   Cpus                 :      1.00        1         1 
	   Disk (KB)            : 200000    15728640  17766271 
	   Memory (MB)          :    446        2048      2100 
...
