000 (59345.473.000) 12/23 02:01:40 Job submitted from host: <10.141.225.107:9618?addrs=10.141.225.107-9618&noUDP&sock=2048_560c_3>
...
001 (59345.473.000) 12/23 05:02:32 Job executing on host: <10.141.0.202:9618?addrs=10.141.0.202-9618&noUDP&sock=3802_6f2a_3>
...
006 (59345.473.000) 12/23 05:02:40 Image size of job updated: 640
	1  -  MemoryUsage of job (MB)
	640  -  ResidentSetSize of job (KB)
...
006 (59345.473.000) 12/23 05:07:40 Image size of job updated: 312216
	304  -  MemoryUsage of job (MB)
	311188  -  ResidentSetSize of job (KB)
...
006 (59345.473.000) 12/23 05:12:41 Image size of job updated: 323604
	316  -  MemoryUsage of job (MB)
	322576  -  ResidentSetSize of job (KB)
...
006 (59345.473.000) 12/23 05:17:41 Image size of job updated: 334948
	327  -  MemoryUsage of job (MB)
	334268  -  ResidentSetSize of job (KB)
...
006 (59345.473.000) 12/23 05:22:43 Image size of job updated: 439976
	430  -  MemoryUsage of job (MB)
	439840  -  ResidentSetSize of job (KB)
...
006 (59345.473.000) 12/23 05:27:43 Image size of job updated: 439996
	430  -  MemoryUsage of job (MB)
	439852  -  ResidentSetSize of job (KB)
...
006 (59345.473.000) 12/23 05:32:43 Image size of job updated: 440044
	430  -  MemoryUsage of job (MB)
	439868  -  ResidentSetSize of job (KB)
...
006 (59345.473.000) 12/23 05:37:44 Image size of job updated: 440044
	430  -  MemoryUsage of job (MB)
	439880  -  ResidentSetSize of job (KB)
...
006 (59345.473.000) 12/23 05:42:44 Image size of job updated: 440044
	430  -  MemoryUsage of job (MB)
	439892  -  ResidentSetSize of job (KB)
...
005 (59345.473.000) 12/23 05:45:08 Job terminated.
	(1) Normal termination (return value 0)
		Usr 0 00:41:28, Sys 0 00:00:10  -  Run Remote Usage
		Usr 0 00:00:00, Sys 0 00:00:00  -  Run Local Usage
		Usr 0 00:41:28, Sys 0 00:00:10  -  Total Remote Usage
		Usr 0 00:00:00, Sys 0 00:00:00  -  Total Local Usage
	11071  -  Run Bytes Sent By Job
	114312016  -  Run Bytes Received By Job
	11071  -  Total Bytes Sent By Job
	114312016  -  Total Bytes Received By Job
	Partitionable Resources :    Usage  Request Allocated 
	   Cpus                 :                 1         1 
	   Disk (KB)            :   111771 15728640  17766432 
	   Memory (MB)          :      430     2048      2048 
...
