000 (215853.639.000) 12/19 01:56:22 Job submitted from host: <10.141.253.27:9618?addrs=10.141.253.27-9618&noUDP&sock=3236953_1928_17>
...
001 (215853.639.000) 12/19 03:34:48 Job executing on host: <10.141.0.185:9618?addrs=10.141.0.185-9618&noUDP&sock=3735_7a51_3>
...
006 (215853.639.000) 12/19 03:34:57 Image size of job updated: 876
	1  -  MemoryUsage of job (MB)
	876  -  ResidentSetSize of job (KB)
...
006 (215853.639.000) 12/19 03:39:58 Image size of job updated: 328760
	321  -  MemoryUsage of job (MB)
	328392  -  ResidentSetSize of job (KB)
...
006 (215853.639.000) 12/19 03:44:58 Image size of job updated: 339132
	331  -  MemoryUsage of job (MB)
	338764  -  ResidentSetSize of job (KB)
...
006 (215853.639.000) 12/19 03:50:00 Image size of job updated: 349336
	341  -  MemoryUsage of job (MB)
	348968  -  ResidentSetSize of job (KB)
...
006 (215853.639.000) 12/19 03:55:00 Image size of job updated: 473368
	462  -  MemoryUsage of job (MB)
	473000  -  ResidentSetSize of job (KB)
...
006 (215853.639.000) 12/19 04:00:00 Image size of job updated: 473376
	462  -  MemoryUsage of job (MB)
	473008  -  ResidentSetSize of job (KB)
...
006 (215853.639.000) 12/19 04:05:01 Image size of job updated: 473388
	462  -  MemoryUsage of job (MB)
	473020  -  ResidentSetSize of job (KB)
...
006 (215853.639.000) 12/19 04:10:01 Image size of job updated: 473400
	462  -  MemoryUsage of job (MB)
	473032  -  ResidentSetSize of job (KB)
...
006 (215853.639.000) 12/19 04:15:01 Image size of job updated: 473408
	462  -  MemoryUsage of job (MB)
	473040  -  ResidentSetSize of job (KB)
...
006 (215853.639.000) 12/19 04:20:02 Image size of job updated: 473420
	462  -  MemoryUsage of job (MB)
	473052  -  ResidentSetSize of job (KB)
...
005 (215853.639.000) 12/19 04:24:41 Job terminated.
	(1) Normal termination (return value 0)
		Usr 0 00:47:13, Sys 0 00:00:09  -  Run Remote Usage
		Usr 0 00:00:00, Sys 0 00:00:00  -  Run Local Usage
		Usr 0 00:47:13, Sys 0 00:00:09  -  Total Remote Usage
		Usr 0 00:00:00, Sys 0 00:00:00  -  Total Local Usage
	11074  -  Run Bytes Sent By Job
	112259376  -  Run Bytes Received By Job
	11074  -  Total Bytes Sent By Job
	112259376  -  Total Bytes Received By Job
	Partitionable Resources :     Usage  Request Allocated 
	   Cpus                 :      0.97        1         1 
	   Disk (KB)            : 109769    15728640  17766676 
	   Memory (MB)          :    462        2048      2100 
...
000 (215856.639.000) 12/21 12:00:47 Job submitted from host: <10.141.253.27:9618?addrs=10.141.253.27-9618&noUDP&sock=3236953_1928_17>
...
001 (215856.639.000) 12/21 13:52:05 Job executing on host: <10.141.0.201:9618?addrs=10.141.0.201-9618&noUDP&sock=3713_633c_3>
...
006 (215856.639.000) 12/21 13:52:13 Image size of job updated: 1376
	1  -  MemoryUsage of job (MB)
	900  -  ResidentSetSize of job (KB)
...
006 (215856.639.000) 12/21 13:57:13 Image size of job updated: 492116
	305  -  MemoryUsage of job (MB)
	311812  -  ResidentSetSize of job (KB)
...
006 (215856.639.000) 12/21 14:02:14 Image size of job updated: 492116
	316  -  MemoryUsage of job (MB)
	322624  -  ResidentSetSize of job (KB)
...
006 (215856.639.000) 12/21 14:07:14 Image size of job updated: 492116
	326  -  MemoryUsage of job (MB)
	332936  -  ResidentSetSize of job (KB)
...
006 (215856.639.000) 12/21 14:12:15 Image size of job updated: 492116
	440  -  MemoryUsage of job (MB)
	450360  -  ResidentSetSize of job (KB)
...
006 (215856.639.000) 12/21 14:17:16 Image size of job updated: 492116
	440  -  MemoryUsage of job (MB)
	450472  -  ResidentSetSize of job (KB)
...
006 (215856.639.000) 12/21 14:22:16 Image size of job updated: 492116
	440  -  MemoryUsage of job (MB)
	450484  -  ResidentSetSize of job (KB)
...
006 (215856.639.000) 12/21 14:27:17 Image size of job updated: 492116
	440  -  MemoryUsage of job (MB)
	450496  -  ResidentSetSize of job (KB)
...
006 (215856.639.000) 12/21 14:32:17 Image size of job updated: 492116
	440  -  MemoryUsage of job (MB)
	450508  -  ResidentSetSize of job (KB)
...
006 (215856.639.000) 12/21 14:37:18 Image size of job updated: 492116
	440  -  MemoryUsage of job (MB)
	450516  -  ResidentSetSize of job (KB)
...
005 (215856.639.000) 12/21 14:40:06 Job terminated.
	(1) Normal termination (return value 0)
		Usr 0 00:45:31, Sys 0 00:00:09  -  Run Remote Usage
		Usr 0 00:00:00, Sys 0 00:00:00  -  Run Local Usage
		Usr 0 00:45:31, Sys 0 00:00:09  -  Total Remote Usage
		Usr 0 00:00:00, Sys 0 00:00:00  -  Total Local Usage
	11074  -  Run Bytes Sent By Job
	139633344  -  Run Bytes Received By Job
	11074  -  Total Bytes Sent By Job
	139633344  -  Total Bytes Received By Job
	Partitionable Resources :     Usage  Request Allocated 
	   Cpus                 :      0.94        1         1 
	   Disk (KB)            : 150000    15728640  18100960 
	   Memory (MB)          :    440        2048      2100 
...
000 (59351.639.000) 12/29 12:27:07 Job submitted from host: <10.141.225.107:9618?addrs=10.141.225.107-9618&noUDP&sock=2048_560c_3>
...
001 (59351.639.000) 12/29 13:26:45 Job executing on host: <10.141.0.114:9618?addrs=10.141.0.114-9618&noUDP&sock=3191_56cc_28>
...
006 (59351.639.000) 12/29 13:26:53 Image size of job updated: 5516
	5  -  MemoryUsage of job (MB)
	5112  -  ResidentSetSize of job (KB)
...
006 (59351.639.000) 12/29 13:31:53 Image size of job updated: 335084
	327  -  MemoryUsage of job (MB)
	334304  -  ResidentSetSize of job (KB)
...
006 (59351.639.000) 12/29 13:36:54 Image size of job updated: 344628
	336  -  MemoryUsage of job (MB)
	343928  -  ResidentSetSize of job (KB)
...
006 (59351.639.000) 12/29 13:41:54 Image size of job updated: 354532
	346  -  MemoryUsage of job (MB)
	353692  -  ResidentSetSize of job (KB)
...
006 (59351.639.000) 12/29 13:46:55 Image size of job updated: 432796
	422  -  MemoryUsage of job (MB)
	431892  -  ResidentSetSize of job (KB)
...
006 (59351.639.000) 12/29 13:51:55 Image size of job updated: 452284
	441  -  MemoryUsage of job (MB)
	451380  -  ResidentSetSize of job (KB)
...
006 (59351.639.000) 12/29 13:56:56 Image size of job updated: 452300
	441  -  MemoryUsage of job (MB)
	451396  -  ResidentSetSize of job (KB)
...
006 (59351.639.000) 12/29 14:01:56 Image size of job updated: 452300
	441  -  MemoryUsage of job (MB)
	451412  -  ResidentSetSize of job (KB)
...
006 (59351.639.000) 12/29 14:06:58 Image size of job updated: 452300
	441  -  MemoryUsage of job (MB)
	451420  -  ResidentSetSize of job (KB)
...
006 (59351.639.000) 12/29 14:11:58 Image size of job updated: 452300
	441  -  MemoryUsage of job (MB)
	451428  -  ResidentSetSize of job (KB)
...
005 (59351.639.000) 12/29 14:16:28 Job terminated.
	(1) Normal termination (return value 0)
		Usr 0 00:48:55, Sys 0 00:00:10  -  Run Remote Usage
		Usr 0 00:00:00, Sys 0 00:00:00  -  Run Local Usage
		Usr 0 00:48:55, Sys 0 00:00:10  -  Total Remote Usage
		Usr 0 00:00:00, Sys 0 00:00:00  -  Total Local Usage
	11056  -  Run Bytes Sent By Job
	205654688  -  Run Bytes Received By Job
	11056  -  Total Bytes Sent By Job
	205654688  -  Total Bytes Received By Job
	Partitionable Resources :     Usage  Request Allocated 
	   Cpus                 :      0.99        1         1 
	   Disk (KB)            : 200975    15728640  18163331 
	   Memory (MB)          :    441        2048      2100 
...
