000 (59345.741.000) 12/23 02:01:40 Job submitted from host: <10.141.225.107:9618?addrs=10.141.225.107-9618&noUDP&sock=2048_560c_3>
...
001 (59345.741.000) 12/23 05:57:28 Job executing on host: <10.141.0.202:9618?addrs=10.141.0.202-9618&noUDP&sock=3802_6f2a_3>
...
006 (59345.741.000) 12/23 05:57:37 Image size of job updated: 6368
	6  -  MemoryUsage of job (MB)
	5808  -  ResidentSetSize of job (KB)
...
006 (59345.741.000) 12/23 06:02:38 Image size of job updated: 406988
	307  -  MemoryUsage of job (MB)
	314240  -  ResidentSetSize of job (KB)
...
006 (59345.741.000) 12/23 06:07:38 Image size of job updated: 406988
	320  -  MemoryUsage of job (MB)
	327220  -  ResidentSetSize of job (KB)
...
006 (59345.741.000) 12/23 06:12:39 Image size of job updated: 449508
	439  -  MemoryUsage of job (MB)
	449176  -  ResidentSetSize of job (KB)
...
006 (59345.741.000) 12/23 06:17:39 Image size of job updated: 463656
	453  -  MemoryUsage of job (MB)
	463324  -  ResidentSetSize of job (KB)
...
006 (59345.741.000) 12/23 06:22:41 Image size of job updated: 465760
	453  -  MemoryUsage of job (MB)
	463336  -  ResidentSetSize of job (KB)
...
006 (59345.741.000) 12/23 06:27:41 Image size of job updated: 465880
	453  -  MemoryUsage of job (MB)
	463456  -  ResidentSetSize of job (KB)
...
006 (59345.741.000) 12/23 06:32:41 Image size of job updated: 465880
	453  -  MemoryUsage of job (MB)
	463468  -  ResidentSetSize of job (KB)
...
006 (59345.741.000) 12/23 06:37:42 Image size of job updated: 465880
	453  -  MemoryUsage of job (MB)
	463480  -  ResidentSetSize of job (KB)
...
005 (59345.741.000) 12/23 06:39:09 Job terminated.
	(1) Normal termination (return value 0)
		Usr 0 00:40:34, Sys 0 00:00:10  -  Run Remote Usage
		Usr 0 00:00:00, Sys 0 00:00:00  -  Run Local Usage
		Usr 0 00:40:34, Sys 0 00:00:10  -  Total Remote Usage
		Usr 0 00:00:00, Sys 0 00:00:00  -  Total Local Usage
	11071  -  Run Bytes Sent By Job
	125755832  -  Run Bytes Received By Job
	11071  -  Total Bytes Sent By Job
	125755832  -  Total Bytes Received By Job
	Partitionable Resources :    Usage  Request Allocated 
	   Cpus                 :                 1         1 
	   Disk (KB)            :   122944 15728640  17766432 
	   Memory (MB)          :      453     2048      2048 
...
