000 (59345.200.000) 12/23 02:01:39 Job submitted from host: <10.141.225.107:9618?addrs=10.141.225.107-9618&noUDP&sock=2048_560c_3>
...
001 (59345.200.000) 12/23 03:46:47 Job executing on host: <10.141.0.190:9618?addrs=10.141.0.190-9618&noUDP&sock=3727_fd8f_3>
...
006 (59345.200.000) 12/23 03:46:56 Image size of job updated: 33205456
	6  -  MemoryUsage of job (MB)
	5336  -  ResidentSetSize of job (KB)
...
006 (59345.200.000) 12/23 03:51:57 Image size of job updated: 33205456
	330  -  MemoryUsage of job (MB)
	336956  -  ResidentSetSize of job (KB)
...
006 (59345.200.000) 12/23 03:56:57 Image size of job updated: 33205456
	341  -  MemoryUsage of job (MB)
	348484  -  ResidentSetSize of job (KB)
...
006 (59345.200.000) 12/23 04:01:57 Image size of job updated: 33205456
	436  -  MemoryUsage of job (MB)
	446084  -  ResidentSetSize of job (KB)
...
006 (59345.200.000) 12/23 04:06:58 Image size of job updated: 33205456
	455  -  MemoryUsage of job (MB)
	465844  -  ResidentSetSize of job (KB)
...
006 (59345.200.000) 12/23 04:11:58 Image size of job updated: 33205456
	455  -  MemoryUsage of job (MB)
	465856  -  ResidentSetSize of job (KB)
...
006 (59345.200.000) 12/23 04:16:58 Image size of job updated: 33205456
	455  -  MemoryUsage of job (MB)
	465868  -  ResidentSetSize of job (KB)
...
006 (59345.200.000) 12/23 04:21:59 Image size of job updated: 33205456
	455  -  MemoryUsage of job (MB)
	465880  -  ResidentSetSize of job (KB)
...
006 (59345.200.000) 12/23 04:26:59 Image size of job updated: 33205456
	455  -  MemoryUsage of job (MB)
	465892  -  ResidentSetSize of job (KB)
...
005 (59345.200.000) 12/23 04:27:50 Job terminated.
	(1) Normal termination (return value 0)
		Usr 0 00:40:24, Sys 0 00:00:09  -  Run Remote Usage
		Usr 0 00:00:00, Sys 0 00:00:00  -  Run Local Usage
		Usr 0 00:40:24, Sys 0 00:00:09  -  Total Remote Usage
		Usr 0 00:00:00, Sys 0 00:00:00  -  Total Local Usage
	10973  -  Run Bytes Sent By Job
	104789576  -  Run Bytes Received By Job
	10973  -  Total Bytes Sent By Job
	104789576  -  Total Bytes Received By Job
	Partitionable Resources :     Usage  Request Allocated 
	   Cpus                 :      0.99        1         1 
	   Disk (KB)            : 102480    15728640  17766979 
	   Memory (MB)          :    455        2048      2100 
...
