000 (59346.451.000) 12/23 02:02:55 Job submitted from host: <10.141.225.107:9618?addrs=10.141.225.107-9618&noUDP&sock=2048_560c_3>
...
001 (59346.451.000) 12/23 11:33:44 Job executing on host: <10.141.0.123:9618?addrs=10.141.0.123-9618&noUDP&sock=3010_3028_28>
...
006 (59346.451.000) 12/23 11:33:52 Image size of job updated: 3944
	2  -  MemoryUsage of job (MB)
	1684  -  ResidentSetSize of job (KB)
...
006 (59346.451.000) 12/23 11:38:52 Image size of job updated: 478216
	292  -  MemoryUsage of job (MB)
	298464  -  ResidentSetSize of job (KB)
...
006 (59346.451.000) 12/23 11:43:53 Image size of job updated: 478216
	306  -  MemoryUsage of job (MB)
	312664  -  ResidentSetSize of job (KB)
...
006 (59346.451.000) 12/23 11:48:53 Image size of job updated: 478216
	315  -  MemoryUsage of job (MB)
	322120  -  ResidentSetSize of job (KB)
...
006 (59346.451.000) 12/23 11:53:54 Image size of job updated: 478216
	324  -  MemoryUsage of job (MB)
	331664  -  ResidentSetSize of job (KB)
...
006 (59346.451.000) 12/23 11:58:54 Image size of job updated: 478216
	431  -  MemoryUsage of job (MB)
	440560  -  ResidentSetSize of job (KB)
...
006 (59346.451.000) 12/23 12:03:54 Image size of job updated: 478216
	431  -  MemoryUsage of job (MB)
	440668  -  ResidentSetSize of job (KB)
...
006 (59346.451.000) 12/23 12:08:55 Image size of job updated: 478216
	431  -  MemoryUsage of job (MB)
	440676  -  ResidentSetSize of job (KB)
...
006 (59346.451.000) 12/23 12:13:55 Image size of job updated: 478216
	431  -  MemoryUsage of job (MB)
	440692  -  ResidentSetSize of job (KB)
...
006 (59346.451.000) 12/23 12:18:56 Image size of job updated: 478216
	431  -  MemoryUsage of job (MB)
	440704  -  ResidentSetSize of job (KB)
...
006 (59346.451.000) 12/23 12:23:56 Image size of job updated: 478216
	431  -  MemoryUsage of job (MB)
	440712  -  ResidentSetSize of job (KB)
...
005 (59346.451.000) 12/23 12:28:22 Job terminated.
	(1) Normal termination (return value 0)
		Usr 0 00:50:39, Sys 0 00:00:09  -  Run Remote Usage
		Usr 0 00:00:00, Sys 0 00:00:00  -  Run Local Usage
		Usr 0 00:50:39, Sys 0 00:00:09  -  Total Remote Usage
		Usr 0 00:00:00, Sys 0 00:00:00  -  Total Local Usage
	10991  -  Run Bytes Sent By Job
	178706352  -  Run Bytes Received By Job
	10991  -  Total Bytes Sent By Job
	178706352  -  Total Bytes Received By Job
	Partitionable Resources :     Usage  Request Allocated 
	   Cpus                 :      1.00        1         1 
	   Disk (KB)            : 174658    15728640  18163362 
	   Memory (MB)          :    431        2048      2100 
...
