000 (215853.756.000) 12/19 01:56:22 Job submitted from host: <10.141.253.27:9618?addrs=10.141.253.27-9618&noUDP&sock=3236953_1928_17>
...
001 (215853.756.000) 12/19 05:59:16 Job executing on host: <10.141.0.113:9618?addrs=10.141.0.113-9618&noUDP&sock=3178_6c11_28>
...
006 (215853.756.000) 12/19 05:59:24 Image size of job updated: 5220
	5  -  MemoryUsage of job (MB)
	4564  -  ResidentSetSize of job (KB)
...
006 (215853.756.000) 12/19 06:04:24 Image size of job updated: 501184
	311  -  MemoryUsage of job (MB)
	318096  -  ResidentSetSize of job (KB)
...
006 (215853.756.000) 12/19 06:09:25 Image size of job updated: 515192
	325  -  MemoryUsage of job (MB)
	332104  -  ResidentSetSize of job (KB)
...
006 (215853.756.000) 12/19 06:14:25 Image size of job updated: 642196
	442  -  MemoryUsage of job (MB)
	452328  -  ResidentSetSize of job (KB)
...
006 (215853.756.000) 12/19 06:19:25 Image size of job updated: 645056
	445  -  MemoryUsage of job (MB)
	455188  -  ResidentSetSize of job (KB)
...
006 (215853.756.000) 12/19 06:24:26 Image size of job updated: 645168
	445  -  MemoryUsage of job (MB)
	455304  -  ResidentSetSize of job (KB)
...
006 (215853.756.000) 12/19 06:29:26 Image size of job updated: 645184
	445  -  MemoryUsage of job (MB)
	455320  -  ResidentSetSize of job (KB)
...
006 (215853.756.000) 12/19 06:34:27 Image size of job updated: 645200
	445  -  MemoryUsage of job (MB)
	455336  -  ResidentSetSize of job (KB)
...
006 (215853.756.000) 12/19 06:37:25 Image size of job updated: 645208
	445  -  MemoryUsage of job (MB)
	455336  -  ResidentSetSize of job (KB)
...
005 (215853.756.000) 12/19 06:37:25 Job terminated.
	(1) Normal termination (return value 0)
		Usr 0 00:37:44, Sys 0 00:00:09  -  Run Remote Usage
		Usr 0 00:00:00, Sys 0 00:00:00  -  Run Local Usage
		Usr 0 00:37:44, Sys 0 00:00:09  -  Total Remote Usage
		Usr 0 00:00:00, Sys 0 00:00:00  -  Total Local Usage
	11025  -  Run Bytes Sent By Job
	128636344  -  Run Bytes Received By Job
	11025  -  Total Bytes Sent By Job
	128636344  -  Total Bytes Received By Job
	Partitionable Resources :     Usage  Request Allocated 
	   Cpus                 :      1.00        1         1 
	   Disk (KB)            : 125761    15728640  18163330 
	   Memory (MB)          :    445        2048      2100 
...
000 (215856.756.000) 12/21 12:00:48 Job submitted from host: <10.141.253.27:9618?addrs=10.141.253.27-9618&noUDP&sock=3236953_1928_17>
...
001 (215856.756.000) 12/21 13:55:56 Job executing on host: <10.141.0.192:9618?addrs=10.141.0.192-9618&noUDP&sock=3806_2d8b_3>
...
006 (215856.756.000) 12/21 13:56:05 Image size of job updated: 756
	1  -  MemoryUsage of job (MB)
	676  -  ResidentSetSize of job (KB)
...
006 (215856.756.000) 12/21 14:01:06 Image size of job updated: 334804
	308  -  MemoryUsage of job (MB)
	315268  -  ResidentSetSize of job (KB)
...
006 (215856.756.000) 12/21 14:06:06 Image size of job updated: 346456
	320  -  MemoryUsage of job (MB)
	326920  -  ResidentSetSize of job (KB)
...
006 (215856.756.000) 12/21 14:11:08 Image size of job updated: 431712
	403  -  MemoryUsage of job (MB)
	412168  -  ResidentSetSize of job (KB)
...
006 (215856.756.000) 12/21 14:16:08 Image size of job updated: 461724
	432  -  MemoryUsage of job (MB)
	442180  -  ResidentSetSize of job (KB)
...
006 (215856.756.000) 12/21 14:21:08 Image size of job updated: 461736
	432  -  MemoryUsage of job (MB)
	442192  -  ResidentSetSize of job (KB)
...
006 (215856.756.000) 12/21 14:26:09 Image size of job updated: 461756
	432  -  MemoryUsage of job (MB)
	442212  -  ResidentSetSize of job (KB)
...
006 (215856.756.000) 12/21 14:31:09 Image size of job updated: 461768
	432  -  MemoryUsage of job (MB)
	442224  -  ResidentSetSize of job (KB)
...
006 (215856.756.000) 12/21 14:36:09 Image size of job updated: 461776
	432  -  MemoryUsage of job (MB)
	442232  -  ResidentSetSize of job (KB)
...
005 (215856.756.000) 12/21 14:40:07 Job terminated.
	(1) Normal termination (return value 0)
		Usr 0 00:42:28, Sys 0 00:00:12  -  Run Remote Usage
		Usr 0 00:00:00, Sys 0 00:00:00  -  Run Local Usage
		Usr 0 00:42:28, Sys 0 00:00:12  -  Total Remote Usage
		Usr 0 00:00:00, Sys 0 00:00:00  -  Total Local Usage
	11072  -  Run Bytes Sent By Job
	139726592  -  Run Bytes Received By Job
	11072  -  Total Bytes Sent By Job
	139726592  -  Total Bytes Received By Job
	Partitionable Resources :    Usage  Request Allocated 
	   Cpus                 :        0        1         1 
	   Disk (KB)            :   150000 15728640  17768072 
	   Memory (MB)          :      432     2048      2100 
...
000 (59351.756.000) 12/29 12:27:07 Job submitted from host: <10.141.225.107:9618?addrs=10.141.225.107-9618&noUDP&sock=2048_560c_3>
...
001 (59351.756.000) 12/29 13:33:30 Job executing on host: <10.141.0.73:9618?addrs=10.141.0.73-9618&noUDP&sock=3965_3d1a_25>
...
006 (59351.756.000) 12/29 13:33:40 Image size of job updated: 3564
	4  -  MemoryUsage of job (MB)
	3420  -  ResidentSetSize of job (KB)
...
006 (59351.756.000) 12/29 13:38:40 Image size of job updated: 341020
	296  -  MemoryUsage of job (MB)
	303036  -  ResidentSetSize of job (KB)
...
006 (59351.756.000) 12/29 13:43:40 Image size of job updated: 341020
	305  -  MemoryUsage of job (MB)
	312248  -  ResidentSetSize of job (KB)
...
006 (59351.756.000) 12/29 13:48:41 Image size of job updated: 341020
	315  -  MemoryUsage of job (MB)
	322036  -  ResidentSetSize of job (KB)
...
006 (59351.756.000) 12/29 13:53:41 Image size of job updated: 413944
	404  -  MemoryUsage of job (MB)
	413556  -  ResidentSetSize of job (KB)
...
006 (59351.756.000) 12/29 13:58:42 Image size of job updated: 439200
	429  -  MemoryUsage of job (MB)
	438812  -  ResidentSetSize of job (KB)
...
006 (59351.756.000) 12/29 14:03:42 Image size of job updated: 439204
	429  -  MemoryUsage of job (MB)
	438816  -  ResidentSetSize of job (KB)
...
006 (59351.756.000) 12/29 14:08:42 Image size of job updated: 439212
	429  -  MemoryUsage of job (MB)
	438824  -  ResidentSetSize of job (KB)
...
006 (59351.756.000) 12/29 14:13:43 Image size of job updated: 439220
	429  -  MemoryUsage of job (MB)
	438832  -  ResidentSetSize of job (KB)
...
006 (59351.756.000) 12/29 14:18:43 Image size of job updated: 439232
	429  -  MemoryUsage of job (MB)
	438844  -  ResidentSetSize of job (KB)
...
006 (59351.756.000) 12/29 14:23:44 Image size of job updated: 439236
	429  -  MemoryUsage of job (MB)
	438848  -  ResidentSetSize of job (KB)
...
006 (59351.756.000) 12/29 14:28:44 Image size of job updated: 439240
	429  -  MemoryUsage of job (MB)
	438852  -  ResidentSetSize of job (KB)
...
006 (59351.756.000) 12/29 14:33:45 Image size of job updated: 439248
	429  -  MemoryUsage of job (MB)
	438860  -  ResidentSetSize of job (KB)
...
006 (59351.756.000) 12/29 14:38:45 Image size of job updated: 439252
	429  -  MemoryUsage of job (MB)
	438864  -  ResidentSetSize of job (KB)
...
006 (59351.756.000) 12/29 14:43:45 Image size of job updated: 439256
	429  -  MemoryUsage of job (MB)
	438868  -  ResidentSetSize of job (KB)
...
006 (59351.756.000) 12/29 14:44:19 Image size of job updated: 439564
	429  -  MemoryUsage of job (MB)
	438868  -  ResidentSetSize of job (KB)
...
005 (59351.756.000) 12/29 14:44:19 Job terminated.
	(1) Normal termination (return value 0)
		Usr 0 01:09:37, Sys 0 00:00:11  -  Run Remote Usage
		Usr 0 00:00:00, Sys 0 00:00:00  -  Run Local Usage
		Usr 0 01:09:37, Sys 0 00:00:11  -  Total Remote Usage
		Usr 0 00:00:00, Sys 0 00:00:00  -  Total Local Usage
	11019  -  Run Bytes Sent By Job
	208594192  -  Run Bytes Received By Job
	11019  -  Total Bytes Sent By Job
	208594192  -  Total Bytes Received By Job
	Partitionable Resources :     Usage  Request Allocated 
	   Cpus                 :      1.00        1         1 
	   Disk (KB)            : 203845    15728640  16978760 
	   Memory (MB)          :    429        2048      2100 
...
