000 (59345.690.000) 12/23 02:01:40 Job submitted from host: <10.141.225.107:9618?addrs=10.141.225.107-9618&noUDP&sock=2048_560c_3>
...
001 (59345.690.000) 12/23 05:47:11 Job executing on host: <10.141.0.193:9618?addrs=10.141.0.193-9618&noUDP&sock=3801_bf92_3>
...
006 (59345.690.000) 12/23 05:47:20 Image size of job updated: 1116
	2  -  MemoryUsage of job (MB)
	1036  -  ResidentSetSize of job (KB)
...
006 (59345.690.000) 12/23 05:52:20 Image size of job updated: 501120
	317  -  MemoryUsage of job (MB)
	324064  -  ResidentSetSize of job (KB)
...
006 (59345.690.000) 12/23 05:57:21 Image size of job updated: 501120
	328  -  MemoryUsage of job (MB)
	334956  -  ResidentSetSize of job (KB)
...
006 (59345.690.000) 12/23 06:02:22 Image size of job updated: 501120
	422  -  MemoryUsage of job (MB)
	431604  -  ResidentSetSize of job (KB)
...
006 (59345.690.000) 12/23 06:07:22 Image size of job updated: 501120
	444  -  MemoryUsage of job (MB)
	454084  -  ResidentSetSize of job (KB)
...
006 (59345.690.000) 12/23 06:12:23 Image size of job updated: 501120
	444  -  MemoryUsage of job (MB)
	454096  -  ResidentSetSize of job (KB)
...
006 (59345.690.000) 12/23 06:17:23 Image size of job updated: 501120
	444  -  MemoryUsage of job (MB)
	454112  -  ResidentSetSize of job (KB)
...
006 (59345.690.000) 12/23 06:22:24 Image size of job updated: 501120
	444  -  MemoryUsage of job (MB)
	454124  -  ResidentSetSize of job (KB)
...
006 (59345.690.000) 12/23 06:27:25 Image size of job updated: 501120
	444  -  MemoryUsage of job (MB)
	454136  -  ResidentSetSize of job (KB)
...
005 (59345.690.000) 12/23 06:28:37 Job terminated.
	(1) Normal termination (return value 0)
		Usr 0 00:40:52, Sys 0 00:00:10  -  Run Remote Usage
		Usr 0 00:00:00, Sys 0 00:00:00  -  Run Local Usage
		Usr 0 00:40:52, Sys 0 00:00:10  -  Total Remote Usage
		Usr 0 00:00:00, Sys 0 00:00:00  -  Total Local Usage
	10978  -  Run Bytes Sent By Job
	123385520  -  Run Bytes Received By Job
	10978  -  Total Bytes Sent By Job
	123385520  -  Total Bytes Received By Job
	Partitionable Resources :     Usage  Request Allocated 
	   Cpus                 :      0.99        1         1 
	   Disk (KB)            : 120636    15728640  17768555 
	   Memory (MB)          :    444        2048      2100 
...
