000 (59345.326.000) 12/23 02:01:39 Job submitted from host: <10.141.225.107:9618?addrs=10.141.225.107-9618&noUDP&sock=2048_560c_3>
...
001 (59345.326.000) 12/23 04:24:59 Job executing on host: <10.141.0.111:9618?addrs=10.141.0.111-9618&noUDP&sock=3144_19d9_28>
...
006 (59345.326.000) 12/23 04:25:08 Image size of job updated: 16232
	9  -  MemoryUsage of job (MB)
	8868  -  ResidentSetSize of job (KB)
...
006 (59345.326.000) 12/23 04:30:09 Image size of job updated: 500488
	310  -  MemoryUsage of job (MB)
	317248  -  ResidentSetSize of job (KB)
...
006 (59345.326.000) 12/23 04:35:09 Image size of job updated: 510616
	320  -  MemoryUsage of job (MB)
	327372  -  ResidentSetSize of job (KB)
...
006 (59345.326.000) 12/23 04:40:10 Image size of job updated: 520928
	330  -  MemoryUsage of job (MB)
	337684  -  ResidentSetSize of job (KB)
...
006 (59345.326.000) 12/23 04:45:11 Image size of job updated: 642128
	442  -  MemoryUsage of job (MB)
	452104  -  ResidentSetSize of job (KB)
...
006 (59345.326.000) 12/23 04:50:11 Image size of job updated: 648036
	448  -  MemoryUsage of job (MB)
	458016  -  ResidentSetSize of job (KB)
...
006 (59345.326.000) 12/23 04:55:12 Image size of job updated: 648048
	448  -  MemoryUsage of job (MB)
	458028  -  ResidentSetSize of job (KB)
...
006 (59345.326.000) 12/23 05:00:13 Image size of job updated: 648060
	448  -  MemoryUsage of job (MB)
	458040  -  ResidentSetSize of job (KB)
...
006 (59345.326.000) 12/23 05:05:13 Image size of job updated: 648072
	448  -  MemoryUsage of job (MB)
	458052  -  ResidentSetSize of job (KB)
...
006 (59345.326.000) 12/23 05:10:14 Image size of job updated: 648080
	448  -  MemoryUsage of job (MB)
	458060  -  ResidentSetSize of job (KB)
...
006 (59345.326.000) 12/23 05:15:12 Image size of job updated: 648092
	448  -  MemoryUsage of job (MB)
	458060  -  ResidentSetSize of job (KB)
...
005 (59345.326.000) 12/23 05:15:12 Job terminated.
	(1) Normal termination (return value 0)
		Usr 0 00:49:34, Sys 0 00:00:11  -  Run Remote Usage
		Usr 0 00:00:00, Sys 0 00:00:00  -  Run Local Usage
		Usr 0 00:49:34, Sys 0 00:00:11  -  Total Remote Usage
		Usr 0 00:00:00, Sys 0 00:00:00  -  Total Local Usage
	10956  -  Run Bytes Sent By Job
	108742512  -  Run Bytes Received By Job
	10956  -  Total Bytes Sent By Job
	108742512  -  Total Bytes Received By Job
	Partitionable Resources :     Usage  Request Allocated 
	   Cpus                 :      1.00        1         1 
	   Disk (KB)            : 106340    15728640  18163339 
	   Memory (MB)          :    448        2048      2100 
...
