000 (59345.1166.000) 12/23 02:01:42 Job submitted from host: <10.141.225.107:9618?addrs=10.141.225.107-9618&noUDP&sock=2048_560c_3>
...
001 (59345.1166.000) 12/23 07:11:02 Job executing on host: <10.141.0.196:9618?addrs=10.141.0.196-9618&noUDP&sock=3748_650d_3>
...
006 (59345.1166.000) 12/23 07:11:10 Image size of job updated: 648
	1  -  MemoryUsage of job (MB)
	644  -  ResidentSetSize of job (KB)
...
006 (59345.1166.000) 12/23 07:16:10 Image size of job updated: 318904
	312  -  MemoryUsage of job (MB)
	318600  -  ResidentSetSize of job (KB)
...
006 (59345.1166.000) 12/23 07:21:10 Image size of job updated: 330920
	323  -  MemoryUsage of job (MB)
	330612  -  ResidentSetSize of job (KB)
...
006 (59345.1166.000) 12/23 07:26:11 Image size of job updated: 447368
	437  -  MemoryUsage of job (MB)
	447060  -  ResidentSetSize of job (KB)
...
006 (59345.1166.000) 12/23 07:31:11 Image size of job updated: 453264
	443  -  MemoryUsage of job (MB)
	452956  -  ResidentSetSize of job (KB)
...
006 (59345.1166.000) 12/23 07:36:11 Image size of job updated: 453292
	443  -  MemoryUsage of job (MB)
	452968  -  ResidentSetSize of job (KB)
...
006 (59345.1166.000) 12/23 07:41:12 Image size of job updated: 453292
	443  -  MemoryUsage of job (MB)
	452980  -  ResidentSetSize of job (KB)
...
006 (59345.1166.000) 12/23 07:46:12 Image size of job updated: 453756
	443  -  MemoryUsage of job (MB)
	452992  -  ResidentSetSize of job (KB)
...
005 (59345.1166.000) 12/23 07:51:02 Job terminated.
	(1) Normal termination (return value 0)
		Usr 0 00:39:21, Sys 0 00:00:09  -  Run Remote Usage
		Usr 0 00:00:00, Sys 0 00:00:00  -  Run Local Usage
		Usr 0 00:39:21, Sys 0 00:00:09  -  Total Remote Usage
		Usr 0 00:00:00, Sys 0 00:00:00  -  Total Local Usage
	11069  -  Run Bytes Sent By Job
	146781040  -  Run Bytes Received By Job
	11069  -  Total Bytes Sent By Job
	146781040  -  Total Bytes Received By Job
	Partitionable Resources :     Usage  Request Allocated 
	   Cpus                 :      1.00        1         1 
	   Disk (KB)            : 143479    15728640  17766349 
	   Memory (MB)          :    443        2048      2100 
...
