000 (59346.465.000) 12/23 02:02:55 Job submitted from host: <10.141.225.107:9618?addrs=10.141.225.107-9618&noUDP&sock=2048_560c_3>
...
001 (59346.465.000) 12/23 11:35:35 Job executing on host: <10.141.0.105:9618?addrs=10.141.0.105-9618&noUDP&sock=4549_d069_28>
...
006 (59346.465.000) 12/23 11:35:43 Image size of job updated: 1132
	2  -  MemoryUsage of job (MB)
	1132  -  ResidentSetSize of job (KB)
...
006 (59346.465.000) 12/23 11:40:43 Image size of job updated: 351748
	317  -  MemoryUsage of job (MB)
	324076  -  ResidentSetSize of job (KB)
...
006 (59346.465.000) 12/23 11:45:44 Image size of job updated: 365644
	330  -  MemoryUsage of job (MB)
	337908  -  ResidentSetSize of job (KB)
...
006 (59346.465.000) 12/23 11:50:44 Image size of job updated: 373256
	338  -  MemoryUsage of job (MB)
	345520  -  ResidentSetSize of job (KB)
...
006 (59346.465.000) 12/23 11:55:45 Image size of job updated: 380812
	345  -  MemoryUsage of job (MB)
	353076  -  ResidentSetSize of job (KB)
...
006 (59346.465.000) 12/23 12:00:45 Image size of job updated: 389532
	353  -  MemoryUsage of job (MB)
	360552  -  ResidentSetSize of job (KB)
...
006 (59346.465.000) 12/23 12:05:45 Image size of job updated: 485308
	446  -  MemoryUsage of job (MB)
	456328  -  ResidentSetSize of job (KB)
...
006 (59346.465.000) 12/23 12:10:46 Image size of job updated: 488256
	449  -  MemoryUsage of job (MB)
	459276  -  ResidentSetSize of job (KB)
...
006 (59346.465.000) 12/23 12:15:46 Image size of job updated: 488260
	449  -  MemoryUsage of job (MB)
	459280  -  ResidentSetSize of job (KB)
...
006 (59346.465.000) 12/23 12:20:47 Image size of job updated: 488260
	449  -  MemoryUsage of job (MB)
	459284  -  ResidentSetSize of job (KB)
...
006 (59346.465.000) 12/23 12:25:47 Image size of job updated: 488260
	449  -  MemoryUsage of job (MB)
	459288  -  ResidentSetSize of job (KB)
...
006 (59346.465.000) 12/23 12:30:49 Image size of job updated: 488260
	449  -  MemoryUsage of job (MB)
	459296  -  ResidentSetSize of job (KB)
...
006 (59346.465.000) 12/23 12:35:49 Image size of job updated: 488260
	449  -  MemoryUsage of job (MB)
	459304  -  ResidentSetSize of job (KB)
...
006 (59346.465.000) 12/23 12:40:49 Image size of job updated: 488260
	449  -  MemoryUsage of job (MB)
	459308  -  ResidentSetSize of job (KB)
...
006 (59346.465.000) 12/23 12:45:50 Image size of job updated: 488260
	449  -  MemoryUsage of job (MB)
	459312  -  ResidentSetSize of job (KB)
...
006 (59346.465.000) 12/23 12:50:50 Image size of job updated: 488260
	449  -  MemoryUsage of job (MB)
	459316  -  ResidentSetSize of job (KB)
...
006 (59346.465.000) 12/23 12:55:51 Image size of job updated: 488260
	449  -  MemoryUsage of job (MB)
	459320  -  ResidentSetSize of job (KB)
...
006 (59346.465.000) 12/23 13:00:51 Image size of job updated: 488260
	449  -  MemoryUsage of job (MB)
	459328  -  ResidentSetSize of job (KB)
...
006 (59346.465.000) 12/23 13:05:53 Image size of job updated: 488260
	449  -  MemoryUsage of job (MB)
	459332  -  ResidentSetSize of job (KB)
...
006 (59346.465.000) 12/23 13:06:27 Image size of job updated: 5206120
	449  -  MemoryUsage of job (MB)
	459332  -  ResidentSetSize of job (KB)
...
005 (59346.465.000) 12/23 13:06:28 Job terminated.
	(1) Normal termination (return value 0)
		Usr 0 01:28:35, Sys 0 00:00:14  -  Run Remote Usage
		Usr 0 00:00:00, Sys 0 00:00:00  -  Run Local Usage
		Usr 0 01:28:35, Sys 0 00:00:14  -  Total Remote Usage
		Usr 0 00:00:00, Sys 0 00:00:00  -  Total Local Usage
	11019  -  Run Bytes Sent By Job
	178714848  -  Run Bytes Received By Job
	11019  -  Total Bytes Sent By Job
	178714848  -  Total Bytes Received By Job
	Partitionable Resources :     Usage  Request Allocated 
	   Cpus                 :      0.99        1         1 
	   Disk (KB)            : 174667    15728640  16978916 
	   Memory (MB)          :    449        2048      2100 
...
