000 (59346.123.000) 12/23 02:02:54 Job submitted from host: <10.141.225.107:9618?addrs=10.141.225.107-9618&noUDP&sock=2048_560c_3>
...
001 (59346.123.000) 12/23 07:39:10 Job executing on host: <10.141.0.188:9618?addrs=10.141.0.188-9618&noUDP&sock=3761_4fc8_3>
...
006 (59346.123.000) 12/23 07:39:20 Image size of job updated: 18100
	11  -  MemoryUsage of job (MB)
	10800  -  ResidentSetSize of job (KB)
...
006 (59346.123.000) 12/23 07:44:20 Image size of job updated: 487596
	304  -  MemoryUsage of job (MB)
	310336  -  ResidentSetSize of job (KB)
...
006 (59346.123.000) 12/23 07:49:20 Image size of job updated: 497764
	314  -  MemoryUsage of job (MB)
	321304  -  ResidentSetSize of job (KB)
...
006 (59346.123.000) 12/23 07:54:21 Image size of job updated: 497764
	325  -  MemoryUsage of job (MB)
	332428  -  ResidentSetSize of job (KB)
...
006 (59346.123.000) 12/23 07:59:21 Image size of job updated: 497764
	436  -  MemoryUsage of job (MB)
	445976  -  ResidentSetSize of job (KB)
...
006 (59346.123.000) 12/23 08:04:22 Image size of job updated: 497764
	436  -  MemoryUsage of job (MB)
	446084  -  ResidentSetSize of job (KB)
...
006 (59346.123.000) 12/23 08:09:22 Image size of job updated: 497764
	436  -  MemoryUsage of job (MB)
	446100  -  ResidentSetSize of job (KB)
...
006 (59346.123.000) 12/23 08:14:23 Image size of job updated: 497764
	436  -  MemoryUsage of job (MB)
	446116  -  ResidentSetSize of job (KB)
...
006 (59346.123.000) 12/23 08:19:23 Image size of job updated: 497764
	436  -  MemoryUsage of job (MB)
	446128  -  ResidentSetSize of job (KB)
...
006 (59346.123.000) 12/23 08:24:25 Image size of job updated: 497764
	436  -  MemoryUsage of job (MB)
	446136  -  ResidentSetSize of job (KB)
...
005 (59346.123.000) 12/23 08:28:53 Job terminated.
	(1) Normal termination (return value 0)
		Usr 0 00:46:01, Sys 0 00:00:10  -  Run Remote Usage
		Usr 0 00:00:00, Sys 0 00:00:00  -  Run Local Usage
		Usr 0 00:46:01, Sys 0 00:00:10  -  Total Remote Usage
		Usr 0 00:00:00, Sys 0 00:00:00  -  Total Local Usage
	11040  -  Run Bytes Sent By Job
	155041152  -  Run Bytes Received By Job
	11040  -  Total Bytes Sent By Job
	155041152  -  Total Bytes Received By Job
	Partitionable Resources :     Usage  Request Allocated 
	   Cpus                 :      0.92        1         1 
	   Disk (KB)            : 151556    15728640  17766414 
	   Memory (MB)          :    436        2048      2100 
...
