000 (59345.617.000) 12/23 02:01:40 Job submitted from host: <10.141.225.107:9618?addrs=10.141.225.107-9618&noUDP&sock=2048_560c_3>
...
001 (59345.617.000) 12/23 05:36:16 Job executing on host: <10.141.0.185:9618?addrs=10.141.0.185-9618&noUDP&sock=3735_7a51_3>
...
006 (59345.617.000) 12/23 05:36:25 Image size of job updated: 6112
	6  -  MemoryUsage of job (MB)
	5456  -  ResidentSetSize of job (KB)
...
006 (59345.617.000) 12/23 05:41:26 Image size of job updated: 518404
	332  -  MemoryUsage of job (MB)
	339448  -  ResidentSetSize of job (KB)
...
006 (59345.617.000) 12/23 05:46:26 Image size of job updated: 529380
	343  -  MemoryUsage of job (MB)
	350424  -  ResidentSetSize of job (KB)
...
006 (59345.617.000) 12/23 05:51:26 Image size of job updated: 529380
	353  -  MemoryUsage of job (MB)
	361040  -  ResidentSetSize of job (KB)
...
006 (59345.617.000) 12/23 05:56:27 Image size of job updated: 529380
	469  -  MemoryUsage of job (MB)
	480020  -  ResidentSetSize of job (KB)
...
006 (59345.617.000) 12/23 06:01:27 Image size of job updated: 529380
	469  -  MemoryUsage of job (MB)
	480032  -  ResidentSetSize of job (KB)
...
006 (59345.617.000) 12/23 06:06:28 Image size of job updated: 529380
	469  -  MemoryUsage of job (MB)
	480048  -  ResidentSetSize of job (KB)
...
006 (59345.617.000) 12/23 06:11:28 Image size of job updated: 529380
	469  -  MemoryUsage of job (MB)
	480056  -  ResidentSetSize of job (KB)
...
006 (59345.617.000) 12/23 06:16:28 Image size of job updated: 529380
	469  -  MemoryUsage of job (MB)
	480068  -  ResidentSetSize of job (KB)
...
005 (59345.617.000) 12/23 06:19:35 Job terminated.
	(1) Normal termination (return value 0)
		Usr 0 00:42:33, Sys 0 00:00:10  -  Run Remote Usage
		Usr 0 00:00:00, Sys 0 00:00:00  -  Run Local Usage
		Usr 0 00:42:33, Sys 0 00:00:10  -  Total Remote Usage
		Usr 0 00:00:00, Sys 0 00:00:00  -  Total Local Usage
	11017  -  Run Bytes Sent By Job
	120388792  -  Run Bytes Received By Job
	11017  -  Total Bytes Sent By Job
	120388792  -  Total Bytes Received By Job
	Partitionable Resources :     Usage  Request Allocated 
	   Cpus                 :      0.99        1         1 
	   Disk (KB)            : 117710    15728640  17766676 
	   Memory (MB)          :    469        2048      2100 
...
