000 (59345.304.000) 12/23 02:01:39 Job submitted from host: <10.141.225.107:9618?addrs=10.141.225.107-9618&noUDP&sock=2048_560c_3>
...
001 (59345.304.000) 12/23 04:19:09 Job executing on host: <10.141.0.203:9618?addrs=10.141.0.203-9618&noUDP&sock=3760_a030_3>
...
006 (59345.304.000) 12/23 04:19:17 Image size of job updated: 1164
	1  -  MemoryUsage of job (MB)
	808  -  ResidentSetSize of job (KB)
...
006 (59345.304.000) 12/23 04:24:17 Image size of job updated: 517776
	333  -  MemoryUsage of job (MB)
	340472  -  ResidentSetSize of job (KB)
...
006 (59345.304.000) 12/23 04:29:18 Image size of job updated: 531988
	345  -  MemoryUsage of job (MB)
	352772  -  ResidentSetSize of job (KB)
...
006 (59345.304.000) 12/23 04:34:19 Image size of job updated: 621740
	433  -  MemoryUsage of job (MB)
	442524  -  ResidentSetSize of job (KB)
...
006 (59345.304.000) 12/23 04:39:19 Image size of job updated: 621740
	462  -  MemoryUsage of job (MB)
	472984  -  ResidentSetSize of job (KB)
...
006 (59345.304.000) 12/23 04:44:21 Image size of job updated: 621740
	462  -  MemoryUsage of job (MB)
	472996  -  ResidentSetSize of job (KB)
...
006 (59345.304.000) 12/23 04:49:21 Image size of job updated: 621740
	462  -  MemoryUsage of job (MB)
	473004  -  ResidentSetSize of job (KB)
...
006 (59345.304.000) 12/23 04:54:21 Image size of job updated: 621740
	462  -  MemoryUsage of job (MB)
	473016  -  ResidentSetSize of job (KB)
...
006 (59345.304.000) 12/23 04:59:22 Image size of job updated: 621740
	462  -  MemoryUsage of job (MB)
	473028  -  ResidentSetSize of job (KB)
...
006 (59345.304.000) 12/23 05:04:22 Image size of job updated: 621740
	462  -  MemoryUsage of job (MB)
	473040  -  ResidentSetSize of job (KB)
...
005 (59345.304.000) 12/23 05:05:08 Job terminated.
	(1) Normal termination (return value 0)
		Usr 0 00:45:22, Sys 0 00:00:10  -  Run Remote Usage
		Usr 0 00:00:00, Sys 0 00:00:00  -  Run Local Usage
		Usr 0 00:45:22, Sys 0 00:00:10  -  Total Remote Usage
		Usr 0 00:00:00, Sys 0 00:00:00  -  Total Local Usage
	11045  -  Run Bytes Sent By Job
	107937072  -  Run Bytes Received By Job
	11045  -  Total Bytes Sent By Job
	107937072  -  Total Bytes Received By Job
	Partitionable Resources :     Usage  Request Allocated 
	   Cpus                 :      1.00        1         1 
	   Disk (KB)            : 105554    15728640  17766223 
	   Memory (MB)          :    462        2048      2100 
...
