000 (59345.259.000) 12/23 02:01:39 Job submitted from host: <10.141.225.107:9618?addrs=10.141.225.107-9618&noUDP&sock=2048_560c_3>
...
001 (59345.259.000) 12/23 04:06:15 Job executing on host: <10.141.0.174:9618?addrs=10.141.0.174-9618&noUDP&sock=3094_ce1c_3>
...
006 (59345.259.000) 12/23 04:06:23 Image size of job updated: 17092
	15  -  MemoryUsage of job (MB)
	14620  -  ResidentSetSize of job (KB)
...
006 (59345.259.000) 12/23 04:11:23 Image size of job updated: 495012
	310  -  MemoryUsage of job (MB)
	316736  -  ResidentSetSize of job (KB)
...
006 (59345.259.000) 12/23 04:16:23 Image size of job updated: 505436
	320  -  MemoryUsage of job (MB)
	327160  -  ResidentSetSize of job (KB)
...
006 (59345.259.000) 12/23 04:21:24 Image size of job updated: 515940
	330  -  MemoryUsage of job (MB)
	337668  -  ResidentSetSize of job (KB)
...
006 (59345.259.000) 12/23 04:26:24 Image size of job updated: 515940
	439  -  MemoryUsage of job (MB)
	449108  -  ResidentSetSize of job (KB)
...
006 (59345.259.000) 12/23 04:31:24 Image size of job updated: 515940
	439  -  MemoryUsage of job (MB)
	449220  -  ResidentSetSize of job (KB)
...
006 (59345.259.000) 12/23 04:36:25 Image size of job updated: 515940
	439  -  MemoryUsage of job (MB)
	449228  -  ResidentSetSize of job (KB)
...
006 (59345.259.000) 12/23 04:41:25 Image size of job updated: 515940
	439  -  MemoryUsage of job (MB)
	449244  -  ResidentSetSize of job (KB)
...
006 (59345.259.000) 12/23 04:46:26 Image size of job updated: 515940
	439  -  MemoryUsage of job (MB)
	449256  -  ResidentSetSize of job (KB)
...
005 (59345.259.000) 12/23 04:51:09 Job terminated.
	(1) Normal termination (return value 0)
		Usr 0 00:44:15, Sys 0 00:00:09  -  Run Remote Usage
		Usr 0 00:00:00, Sys 0 00:00:00  -  Run Local Usage
		Usr 0 00:44:15, Sys 0 00:00:09  -  Total Remote Usage
		Usr 0 00:00:00, Sys 0 00:00:00  -  Total Local Usage
	10969  -  Run Bytes Sent By Job
	106165992  -  Run Bytes Received By Job
	10969  -  Total Bytes Sent By Job
	106165992  -  Total Bytes Received By Job
	Partitionable Resources :     Usage  Request Allocated 
	   Cpus                 :      1.00        1         1 
	   Disk (KB)            : 103825    15728640  18812678 
	   Memory (MB)          :    439        2048      2100 
...
