000 (59345.324.000) 12/23 02:01:39 Job submitted from host: <10.141.225.107:9618?addrs=10.141.225.107-9618&noUDP&sock=2048_560c_3>
...
001 (59345.324.000) 12/23 04:24:59 Job executing on host: <10.141.0.70:9618?addrs=10.141.0.70-9618&noUDP&sock=2274_5a74_3>
...
006 (59345.324.000) 12/23 04:25:08 Image size of job updated: 5120
	4  -  MemoryUsage of job (MB)
	3412  -  ResidentSetSize of job (KB)
...
006 (59345.324.000) 12/23 04:30:09 Image size of job updated: 497804
	309  -  MemoryUsage of job (MB)
	315660  -  ResidentSetSize of job (KB)
...
006 (59345.324.000) 12/23 04:35:09 Image size of job updated: 515904
	326  -  MemoryUsage of job (MB)
	332804  -  ResidentSetSize of job (KB)
...
006 (59345.324.000) 12/23 04:40:09 Image size of job updated: 524424
	334  -  MemoryUsage of job (MB)
	341324  -  ResidentSetSize of job (KB)
...
006 (59345.324.000) 12/23 04:45:10 Image size of job updated: 533168
	342  -  MemoryUsage of job (MB)
	350068  -  ResidentSetSize of job (KB)
...
006 (59345.324.000) 12/23 04:50:10 Image size of job updated: 651904
	452  -  MemoryUsage of job (MB)
	462216  -  ResidentSetSize of job (KB)
...
006 (59345.324.000) 12/23 04:55:11 Image size of job updated: 652012
	452  -  MemoryUsage of job (MB)
	462324  -  ResidentSetSize of job (KB)
...
006 (59345.324.000) 12/23 05:00:12 Image size of job updated: 652020
	452  -  MemoryUsage of job (MB)
	462332  -  ResidentSetSize of job (KB)
...
006 (59345.324.000) 12/23 05:05:12 Image size of job updated: 652024
	452  -  MemoryUsage of job (MB)
	462336  -  ResidentSetSize of job (KB)
...
006 (59345.324.000) 12/23 05:10:13 Image size of job updated: 652032
	452  -  MemoryUsage of job (MB)
	462344  -  ResidentSetSize of job (KB)
...
006 (59345.324.000) 12/23 05:15:14 Image size of job updated: 652040
	452  -  MemoryUsage of job (MB)
	462352  -  ResidentSetSize of job (KB)
...
006 (59345.324.000) 12/23 05:20:14 Image size of job updated: 652044
	452  -  MemoryUsage of job (MB)
	462356  -  ResidentSetSize of job (KB)
...
006 (59345.324.000) 12/23 05:25:15 Image size of job updated: 652044
	452  -  MemoryUsage of job (MB)
	462364  -  ResidentSetSize of job (KB)
...
006 (59345.324.000) 12/23 05:30:16 Image size of job updated: 652044
	452  -  MemoryUsage of job (MB)
	462368  -  ResidentSetSize of job (KB)
...
006 (59345.324.000) 12/23 05:35:16 Image size of job updated: 652044
	452  -  MemoryUsage of job (MB)
	462372  -  ResidentSetSize of job (KB)
...
006 (59345.324.000) 12/23 05:40:17 Image size of job updated: 652044
	452  -  MemoryUsage of job (MB)
	462380  -  ResidentSetSize of job (KB)
...
005 (59345.324.000) 12/23 05:43:54 Job terminated.
	(1) Normal termination (return value 0)
		Usr 0 01:17:32, Sys 0 00:00:13  -  Run Remote Usage
		Usr 0 00:00:00, Sys 0 00:00:00  -  Run Local Usage
		Usr 0 01:17:32, Sys 0 00:00:13  -  Total Remote Usage
		Usr 0 00:00:00, Sys 0 00:00:00  -  Total Local Usage
	10952  -  Run Bytes Sent By Job
	108742512  -  Run Bytes Received By Job
	10952  -  Total Bytes Sent By Job
	108742512  -  Total Bytes Received By Job
	Partitionable Resources :     Usage  Request Allocated 
	   Cpus                 :      1.00        1         1 
	   Disk (KB)            : 106340    15728640  16978405 
	   Memory (MB)          :    452        2048      2100 
...
