000 (59346.124.000) 12/23 02:02:54 Job submitted from host: <10.141.225.107:9618?addrs=10.141.225.107-9618&noUDP&sock=2048_560c_3>
...
001 (59346.124.000) 12/23 07:39:10 Job executing on host: <10.141.0.203:9618?addrs=10.141.0.203-9618&noUDP&sock=3760_a030_3>
...
006 (59346.124.000) 12/23 07:39:19 Image size of job updated: 1196
	2  -  MemoryUsage of job (MB)
	1196  -  ResidentSetSize of job (KB)
...
006 (59346.124.000) 12/23 07:44:21 Image size of job updated: 509888
	319  -  MemoryUsage of job (MB)
	326324  -  ResidentSetSize of job (KB)
...
006 (59346.124.000) 12/23 07:49:21 Image size of job updated: 522104
	331  -  MemoryUsage of job (MB)
	338540  -  ResidentSetSize of job (KB)
...
006 (59346.124.000) 12/23 07:54:21 Image size of job updated: 533632
	342  -  MemoryUsage of job (MB)
	350068  -  ResidentSetSize of job (KB)
...
006 (59346.124.000) 12/23 07:59:22 Image size of job updated: 649564
	456  -  MemoryUsage of job (MB)
	466000  -  ResidentSetSize of job (KB)
...
006 (59346.124.000) 12/23 08:04:22 Image size of job updated: 649680
	456  -  MemoryUsage of job (MB)
	466116  -  ResidentSetSize of job (KB)
...
006 (59346.124.000) 12/23 08:09:23 Image size of job updated: 649692
	456  -  MemoryUsage of job (MB)
	466128  -  ResidentSetSize of job (KB)
...
006 (59346.124.000) 12/23 08:14:23 Image size of job updated: 649708
	456  -  MemoryUsage of job (MB)
	466144  -  ResidentSetSize of job (KB)
...
006 (59346.124.000) 12/23 08:19:23 Image size of job updated: 649724
	456  -  MemoryUsage of job (MB)
	466160  -  ResidentSetSize of job (KB)
...
006 (59346.124.000) 12/23 08:24:24 Image size of job updated: 649736
	456  -  MemoryUsage of job (MB)
	466172  -  ResidentSetSize of job (KB)
...
005 (59346.124.000) 12/23 08:24:45 Job terminated.
	(1) Normal termination (return value 0)
		Usr 0 00:42:07, Sys 0 00:00:10  -  Run Remote Usage
		Usr 0 00:00:00, Sys 0 00:00:00  -  Run Local Usage
		Usr 0 00:42:07, Sys 0 00:00:10  -  Total Remote Usage
		Usr 0 00:00:00, Sys 0 00:00:00  -  Total Local Usage
	11072  -  Run Bytes Sent By Job
	155041104  -  Run Bytes Received By Job
	11072  -  Total Bytes Sent By Job
	155041104  -  Total Bytes Received By Job
	Partitionable Resources :     Usage  Request Allocated 
	   Cpus                 :      0.91        1         1 
	   Disk (KB)            : 151555    15728640  17766223 
	   Memory (MB)          :    456        2048      2100 
...
