000 (59345.273.000) 12/23 02:01:39 Job submitted from host: <10.141.225.107:9618?addrs=10.141.225.107-9618&noUDP&sock=2048_560c_3>
...
001 (59345.273.000) 12/23 04:10:34 Job executing on host: <10.141.0.161:9618?addrs=10.141.0.161-9618&noUDP&sock=3132_deb6_40>
...
006 (59345.273.000) 12/23 04:10:43 Image size of job updated: 1008
	1  -  MemoryUsage of job (MB)
	1004  -  ResidentSetSize of job (KB)
...
006 (59345.273.000) 12/23 04:15:43 Image size of job updated: 496580
	307  -  MemoryUsage of job (MB)
	313488  -  ResidentSetSize of job (KB)
...
006 (59345.273.000) 12/23 04:20:43 Image size of job updated: 507308
	317  -  MemoryUsage of job (MB)
	324216  -  ResidentSetSize of job (KB)
...
006 (59345.273.000) 12/23 04:25:44 Image size of job updated: 517492
	328  -  MemoryUsage of job (MB)
	335028  -  ResidentSetSize of job (KB)
...
006 (59345.273.000) 12/23 04:30:44 Image size of job updated: 638684
	439  -  MemoryUsage of job (MB)
	449432  -  ResidentSetSize of job (KB)
...
006 (59345.273.000) 12/23 04:35:44 Image size of job updated: 638696
	439  -  MemoryUsage of job (MB)
	449444  -  ResidentSetSize of job (KB)
...
006 (59345.273.000) 12/23 04:40:45 Image size of job updated: 638708
	439  -  MemoryUsage of job (MB)
	449456  -  ResidentSetSize of job (KB)
...
006 (59345.273.000) 12/23 04:45:45 Image size of job updated: 638720
	439  -  MemoryUsage of job (MB)
	449472  -  ResidentSetSize of job (KB)
...
006 (59345.273.000) 12/23 04:50:45 Image size of job updated: 638732
	439  -  MemoryUsage of job (MB)
	449484  -  ResidentSetSize of job (KB)
...
006 (59345.273.000) 12/23 04:54:12 Image size of job updated: 638740
	439  -  MemoryUsage of job (MB)
	449484  -  ResidentSetSize of job (KB)
...
005 (59345.273.000) 12/23 04:54:12 Job terminated.
	(1) Normal termination (return value 0)
		Usr 0 00:42:57, Sys 0 00:00:09  -  Run Remote Usage
		Usr 0 00:00:00, Sys 0 00:00:00  -  Run Local Usage
		Usr 0 00:42:57, Sys 0 00:00:09  -  Total Remote Usage
		Usr 0 00:00:00, Sys 0 00:00:00  -  Total Local Usage
	11032  -  Run Bytes Sent By Job
	106547328  -  Run Bytes Received By Job
	11032  -  Total Bytes Sent By Job
	106547328  -  Total Bytes Received By Job
	Partitionable Resources :     Usage  Request Allocated 
	   Cpus                 :      1.00        1         1 
	   Disk (KB)            : 104197    15728640  18812842 
	   Memory (MB)          :    439        2048      2100 
...
