000 (59345.523.000) 12/23 02:01:40 Job submitted from host: <10.141.225.107:9618?addrs=10.141.225.107-9618&noUDP&sock=2048_560c_3>
...
001 (59345.523.000) 12/23 05:15:15 Job executing on host: <10.141.0.200:9618?addrs=10.141.0.200-9618&noUDP&sock=3781_07ad_3>
...
006 (59345.523.000) 12/23 05:15:24 Image size of job updated: 640
	1  -  MemoryUsage of job (MB)
	640  -  ResidentSetSize of job (KB)
...
006 (59345.523.000) 12/23 05:20:24 Image size of job updated: 341796
	329  -  MemoryUsage of job (MB)
	336100  -  ResidentSetSize of job (KB)
...
006 (59345.523.000) 12/23 05:25:24 Image size of job updated: 347232
	339  -  MemoryUsage of job (MB)
	346664  -  ResidentSetSize of job (KB)
...
006 (59345.523.000) 12/23 05:30:25 Image size of job updated: 359560
	351  -  MemoryUsage of job (MB)
	358992  -  ResidentSetSize of job (KB)
...
006 (59345.523.000) 12/23 05:35:25 Image size of job updated: 473116
	462  -  MemoryUsage of job (MB)
	472724  -  ResidentSetSize of job (KB)
...
006 (59345.523.000) 12/23 05:40:27 Image size of job updated: 476716
	462  -  MemoryUsage of job (MB)
	472736  -  ResidentSetSize of job (KB)
...
006 (59345.523.000) 12/23 05:45:27 Image size of job updated: 476756
	462  -  MemoryUsage of job (MB)
	472748  -  ResidentSetSize of job (KB)
...
006 (59345.523.000) 12/23 05:50:27 Image size of job updated: 476756
	462  -  MemoryUsage of job (MB)
	472760  -  ResidentSetSize of job (KB)
...
006 (59345.523.000) 12/23 05:55:28 Image size of job updated: 476756
	462  -  MemoryUsage of job (MB)
	472772  -  ResidentSetSize of job (KB)
...
005 (59345.523.000) 12/23 05:59:38 Job terminated.
	(1) Normal termination (return value 0)
		Usr 0 00:42:59, Sys 0 00:00:10  -  Run Remote Usage
		Usr 0 00:00:00, Sys 0 00:00:00  -  Run Local Usage
		Usr 0 00:42:59, Sys 0 00:00:10  -  Total Remote Usage
		Usr 0 00:00:00, Sys 0 00:00:00  -  Total Local Usage
	10974  -  Run Bytes Sent By Job
	116458672  -  Run Bytes Received By Job
	10974  -  Total Bytes Sent By Job
	116458672  -  Total Bytes Received By Job
	Partitionable Resources :     Usage  Request Allocated 
	   Cpus                 :      1.00        1         1 
	   Disk (KB)            : 113873    15728640  17766366 
	   Memory (MB)          :    462        2048      2100 
...
