000 (59346.344.000) 12/23 02:02:55 Job submitted from host: <10.141.225.107:9618?addrs=10.141.225.107-9618&noUDP&sock=2048_560c_3>
...
001 (59346.344.000) 12/23 11:21:14 Job executing on host: <10.141.0.152:9618?addrs=10.141.0.152-9618&noUDP&sock=3444_e042_40>
...
006 (59346.344.000) 12/23 11:21:23 Image size of job updated: 1840
	2  -  MemoryUsage of job (MB)
	1840  -  ResidentSetSize of job (KB)
...
006 (59346.344.000) 12/23 11:26:24 Image size of job updated: 510168
	320  -  MemoryUsage of job (MB)
	327072  -  ResidentSetSize of job (KB)
...
006 (59346.344.000) 12/23 11:31:24 Image size of job updated: 520432
	330  -  MemoryUsage of job (MB)
	337332  -  ResidentSetSize of job (KB)
...
006 (59346.344.000) 12/23 11:36:25 Image size of job updated: 530824
	340  -  MemoryUsage of job (MB)
	347728  -  ResidentSetSize of job (KB)
...
006 (59346.344.000) 12/23 11:41:25 Image size of job updated: 645248
	445  -  MemoryUsage of job (MB)
	455368  -  ResidentSetSize of job (KB)
...
006 (59346.344.000) 12/23 11:46:26 Image size of job updated: 656668
	456  -  MemoryUsage of job (MB)
	466788  -  ResidentSetSize of job (KB)
...
006 (59346.344.000) 12/23 11:51:26 Image size of job updated: 656668
	456  -  MemoryUsage of job (MB)
	466796  -  ResidentSetSize of job (KB)
...
006 (59346.344.000) 12/23 11:56:26 Image size of job updated: 656668
	456  -  MemoryUsage of job (MB)
	466812  -  ResidentSetSize of job (KB)
...
006 (59346.344.000) 12/23 12:01:27 Image size of job updated: 656668
	456  -  MemoryUsage of job (MB)
	466820  -  ResidentSetSize of job (KB)
...
006 (59346.344.000) 12/23 12:06:27 Image size of job updated: 656668
	456  -  MemoryUsage of job (MB)
	466832  -  ResidentSetSize of job (KB)
...
005 (59346.344.000) 12/23 12:09:33 Job terminated.
	(1) Normal termination (return value 0)
		Usr 0 00:45:17, Sys 0 00:00:10  -  Run Remote Usage
		Usr 0 00:00:00, Sys 0 00:00:00  -  Run Local Usage
		Usr 0 00:45:17, Sys 0 00:00:10  -  Total Remote Usage
		Usr 0 00:00:00, Sys 0 00:00:00  -  Total Local Usage
	11061  -  Run Bytes Sent By Job
	177916448  -  Run Bytes Received By Job
	11061  -  Total Bytes Sent By Job
	177916448  -  Total Bytes Received By Job
	Partitionable Resources :     Usage  Request Allocated 
	   Cpus                 :      0.97        1         1 
	   Disk (KB)            : 173889    15728640  18812857 
	   Memory (MB)          :    456        2048      2100 
...
