000 (59345.208.000) 12/23 02:01:39 Job submitted from host: <10.141.225.107:9618?addrs=10.141.225.107-9618&noUDP&sock=2048_560c_3>
...
001 (59345.208.000) 12/23 03:48:53 Job executing on host: <10.141.0.197:9618?addrs=10.141.0.197-9618&noUDP&sock=5226_2e07_28>
...
006 (59345.208.000) 12/23 03:49:02 Image size of job updated: 6036
	6  -  MemoryUsage of job (MB)
	5560  -  ResidentSetSize of job (KB)
...
006 (59345.208.000) 12/23 03:54:03 Image size of job updated: 404188
	308  -  MemoryUsage of job (MB)
	315024  -  ResidentSetSize of job (KB)
...
006 (59345.208.000) 12/23 03:59:03 Image size of job updated: 415980
	320  -  MemoryUsage of job (MB)
	326868  -  ResidentSetSize of job (KB)
...
006 (59345.208.000) 12/23 04:04:03 Image size of job updated: 426104
	330  -  MemoryUsage of job (MB)
	336992  -  ResidentSetSize of job (KB)
...
006 (59345.208.000) 12/23 04:09:04 Image size of job updated: 538056
	438  -  MemoryUsage of job (MB)
	448220  -  ResidentSetSize of job (KB)
...
006 (59345.208.000) 12/23 04:14:04 Image size of job updated: 538068
	438  -  MemoryUsage of job (MB)
	448232  -  ResidentSetSize of job (KB)
...
006 (59345.208.000) 12/23 04:19:05 Image size of job updated: 538068
	438  -  MemoryUsage of job (MB)
	448244  -  ResidentSetSize of job (KB)
...
006 (59345.208.000) 12/23 04:24:06 Image size of job updated: 538068
	438  -  MemoryUsage of job (MB)
	448256  -  ResidentSetSize of job (KB)
...
006 (59345.208.000) 12/23 04:29:06 Image size of job updated: 538068
	438  -  MemoryUsage of job (MB)
	448268  -  ResidentSetSize of job (KB)
...
005 (59345.208.000) 12/23 04:32:15 Job terminated.
	(1) Normal termination (return value 0)
		Usr 0 00:42:18, Sys 0 00:00:11  -  Run Remote Usage
		Usr 0 00:00:00, Sys 0 00:00:00  -  Run Local Usage
		Usr 0 00:42:18, Sys 0 00:00:11  -  Total Remote Usage
		Usr 0 00:00:00, Sys 0 00:00:00  -  Total Local Usage
	10973  -  Run Bytes Sent By Job
	104849792  -  Run Bytes Received By Job
	10973  -  Total Bytes Sent By Job
	104849792  -  Total Bytes Received By Job
	Partitionable Resources :     Usage  Request Allocated 
	   Cpus                 :      0.97        1         1 
	   Disk (KB)            : 102541    15728640  17767643 
	   Memory (MB)          :    438        2048      2100 
...
