000 (59345.118.000) 12/23 02:01:39 Job submitted from host: <10.141.225.107:9618?addrs=10.141.225.107-9618&noUDP&sock=2048_560c_3>
...
001 (59345.118.000) 12/23 03:10:15 Job executing on host: <10.141.0.168:9618?addrs=10.141.0.168-9618&noUDP&sock=3300_1a9f_40>
...
006 (59345.118.000) 12/23 03:10:23 Image size of job updated: 4116
	4  -  MemoryUsage of job (MB)
	3436  -  ResidentSetSize of job (KB)
...
006 (59345.118.000) 12/23 03:15:23 Image size of job updated: 489236
	305  -  MemoryUsage of job (MB)
	311628  -  ResidentSetSize of job (KB)
...
006 (59345.118.000) 12/23 03:20:24 Image size of job updated: 499056
	315  -  MemoryUsage of job (MB)
	321780  -  ResidentSetSize of job (KB)
...
006 (59345.118.000) 12/23 03:25:24 Image size of job updated: 511432
	325  -  MemoryUsage of job (MB)
	332352  -  ResidentSetSize of job (KB)
...
006 (59345.118.000) 12/23 03:30:24 Image size of job updated: 619204
	430  -  MemoryUsage of job (MB)
	440124  -  ResidentSetSize of job (KB)
...
006 (59345.118.000) 12/23 03:35:25 Image size of job updated: 619332
	430  -  MemoryUsage of job (MB)
	440240  -  ResidentSetSize of job (KB)
...
006 (59345.118.000) 12/23 03:40:25 Image size of job updated: 619348
	430  -  MemoryUsage of job (MB)
	440256  -  ResidentSetSize of job (KB)
...
006 (59345.118.000) 12/23 03:45:25 Image size of job updated: 619364
	430  -  MemoryUsage of job (MB)
	440272  -  ResidentSetSize of job (KB)
...
006 (59345.118.000) 12/23 03:50:26 Image size of job updated: 619376
	430  -  MemoryUsage of job (MB)
	440284  -  ResidentSetSize of job (KB)
...
006 (59345.118.000) 12/23 03:54:23 Image size of job updated: 619436
	430  -  MemoryUsage of job (MB)
	440284  -  ResidentSetSize of job (KB)
...
005 (59345.118.000) 12/23 03:54:23 Job terminated.
	(1) Normal termination (return value 0)
		Usr 0 00:42:19, Sys 0 00:00:09  -  Run Remote Usage
		Usr 0 00:00:00, Sys 0 00:00:00  -  Run Local Usage
		Usr 0 00:42:19, Sys 0 00:00:09  -  Total Remote Usage
		Usr 0 00:00:00, Sys 0 00:00:00  -  Total Local Usage
	11033  -  Run Bytes Sent By Job
	103478256  -  Run Bytes Received By Job
	11033  -  Total Bytes Sent By Job
	103478256  -  Total Bytes Received By Job
	Partitionable Resources :     Usage  Request Allocated 
	   Cpus                 :      0.96        1         1 
	   Disk (KB)            : 101203    15728640  18812859 
	   Memory (MB)          :    430        2048      2100 
...
