000 (160571.260.000) 11/11 12:12:58 Job submitted from host: <10.141.253.27:9618?addrs=10.141.253.27-9618&noUDP&sock=1704656_cea9_3>
...
001 (160571.260.000) 11/11 16:21:32 Job executing on host: <10.141.0.114:9618?addrs=10.141.0.114-9618&noUDP&sock=3191_56cc_28>
...
006 (160571.260.000) 11/11 16:21:40 Image size of job updated: 1476
	2  -  MemoryUsage of job (MB)
	1476  -  ResidentSetSize of job (KB)
...
006 (160571.260.000) 11/11 16:26:40 Image size of job updated: 197576
	172  -  MemoryUsage of job (MB)
	176128  -  ResidentSetSize of job (KB)
...
006 (160571.260.000) 11/11 16:36:41 Image size of job updated: 197624
	173  -  MemoryUsage of job (MB)
	176176  -  ResidentSetSize of job (KB)
...
006 (160571.260.000) 11/11 16:41:41 Image size of job updated: 205332
	180  -  MemoryUsage of job (MB)
	183532  -  ResidentSetSize of job (KB)
...
006 (160571.260.000) 11/11 16:46:42 Image size of job updated: 205664
	180  -  MemoryUsage of job (MB)
	183864  -  ResidentSetSize of job (KB)
...
005 (160571.260.000) 11/11 16:48:29 Job terminated.
	(1) Normal termination (return value 0)
		Usr 0 00:25:09, Sys 0 00:00:30  -  Run Remote Usage
		Usr 0 00:00:00, Sys 0 00:00:00  -  Run Local Usage
		Usr 0 00:25:09, Sys 0 00:00:30  -  Total Remote Usage
		Usr 0 00:00:00, Sys 0 00:00:00  -  Total Local Usage
	14645  -  Run Bytes Sent By Job
	27268880  -  Run Bytes Received By Job
	14645  -  Total Bytes Sent By Job
	27268880  -  Total Bytes Received By Job
	Partitionable Resources :    Usage  Request Allocated 
	   Cpus                 :     1.00        1         1 
	   Disk (KB)            : 26730    15728640  18163331 
	   Memory (MB)          :   180        2048      2100 
...
