000 (160571.128.000) 11/11 12:12:58 Job submitted from host: <10.141.253.27:9618?addrs=10.141.253.27-9618&noUDP&sock=1704656_cea9_3>
...
001 (160571.128.000) 11/11 13:44:10 Job executing on host: <10.141.0.107:9618?addrs=10.141.0.107-9618&noUDP&sock=3146_7909_28>
...
006 (160571.128.000) 11/11 13:44:19 Image size of job updated: 760
	1  -  MemoryUsage of job (MB)
	760  -  ResidentSetSize of job (KB)
...
006 (160571.128.000) 11/11 13:49:19 Image size of job updated: 213592
	149  -  MemoryUsage of job (MB)
	152464  -  ResidentSetSize of job (KB)
...
006 (160571.128.000) 11/11 14:04:20 Image size of job updated: 213592
	157  -  MemoryUsage of job (MB)
	160060  -  ResidentSetSize of job (KB)
...
006 (160571.128.000) 11/11 14:09:20 Image size of job updated: 213592
	157  -  MemoryUsage of job (MB)
	160428  -  ResidentSetSize of job (KB)
...
005 (160571.128.000) 11/11 14:09:58 Job terminated.
	(1) Normal termination (return value 0)
		Usr 0 00:24:19, Sys 0 00:00:26  -  Run Remote Usage
		Usr 0 00:00:00, Sys 0 00:00:00  -  Run Local Usage
		Usr 0 00:24:19, Sys 0 00:00:26  -  Total Remote Usage
		Usr 0 00:00:00, Sys 0 00:00:00  -  Total Local Usage
	14628  -  Run Bytes Sent By Job
	25127468  -  Run Bytes Received By Job
	14628  -  Total Bytes Sent By Job
	25127468  -  Total Bytes Received By Job
	Partitionable Resources :    Usage  Request Allocated 
	   Cpus                 :     1.00        1         1 
	   Disk (KB)            : 25000    15728640  18163382 
	   Memory (MB)          :   157        2048      2100 
...
