000 (160571.198.000) 11/11 12:12:58 Job submitted from host: <10.141.253.27:9618?addrs=10.141.253.27-9618&noUDP&sock=1704656_cea9_3>
...
001 (160571.198.000) 11/11 15:03:59 Job executing on host: <10.141.0.161:9618?addrs=10.141.0.161-9618&noUDP&sock=3132_deb6_40>
...
006 (160571.198.000) 11/11 15:04:08 Image size of job updated: 984
	1  -  MemoryUsage of job (MB)
	980  -  ResidentSetSize of job (KB)
...
006 (160571.198.000) 11/11 15:09:08 Image size of job updated: 290388
	160  -  MemoryUsage of job (MB)
	163216  -  ResidentSetSize of job (KB)
...
006 (160571.198.000) 11/11 15:14:08 Image size of job updated: 290428
	160  -  MemoryUsage of job (MB)
	163256  -  ResidentSetSize of job (KB)
...
006 (160571.198.000) 11/11 15:19:09 Image size of job updated: 299920
	167  -  MemoryUsage of job (MB)
	170896  -  ResidentSetSize of job (KB)
...
006 (160571.198.000) 11/11 15:22:31 Image size of job updated: 300212
	167  -  MemoryUsage of job (MB)
	170896  -  ResidentSetSize of job (KB)
...
005 (160571.198.000) 11/11 15:22:31 Job terminated.
	(1) Normal termination (return value 0)
		Usr 0 00:16:40, Sys 0 00:00:21  -  Run Remote Usage
		Usr 0 00:00:00, Sys 0 00:00:00  -  Run Local Usage
		Usr 0 00:16:40, Sys 0 00:00:21  -  Total Remote Usage
		Usr 0 00:00:00, Sys 0 00:00:00  -  Total Local Usage
	14647  -  Run Bytes Sent By Job
	26429156  -  Run Bytes Received By Job
	14647  -  Total Bytes Sent By Job
	26429156  -  Total Bytes Received By Job
	Partitionable Resources :    Usage  Request Allocated 
	   Cpus                 :     0.98        1         1 
	   Disk (KB)            : 25911    15728640  18812842 
	   Memory (MB)          :   167        2048      2100 
...
