000 (160571.036.000) 11/11 12:12:57 Job submitted from host: <10.141.253.27:9618?addrs=10.141.253.27-9618&noUDP&sock=1704656_cea9_3>
...
001 (160571.036.000) 11/11 12:20:00 Job executing on host: <10.141.0.185:9618?addrs=10.141.0.185-9618&noUDP&sock=4993_5c76_169>
...
006 (160571.036.000) 11/11 12:20:08 Image size of job updated: 6064
	6  -  MemoryUsage of job (MB)
	6060  -  ResidentSetSize of job (KB)
...
006 (160571.036.000) 11/11 12:25:08 Image size of job updated: 217200
	166  -  MemoryUsage of job (MB)
	169172  -  ResidentSetSize of job (KB)
...
006 (160571.036.000) 11/11 12:30:09 Image size of job updated: 217232
	166  -  MemoryUsage of job (MB)
	169172  -  ResidentSetSize of job (KB)
...
006 (160571.036.000) 11/11 12:35:10 Image size of job updated: 231840
	173  -  MemoryUsage of job (MB)
	176936  -  ResidentSetSize of job (KB)
...
006 (160571.036.000) 11/11 12:35:49 Image size of job updated: 232012
	173  -  MemoryUsage of job (MB)
	176936  -  ResidentSetSize of job (KB)
...
005 (160571.036.000) 11/11 12:35:49 Job terminated.
	(1) Normal termination (return value 0)
		Usr 0 00:14:18, Sys 0 00:00:24  -  Run Remote Usage
		Usr 0 00:00:00, Sys 0 00:00:00  -  Run Local Usage
		Usr 0 00:14:18, Sys 0 00:00:24  -  Total Remote Usage
		Usr 0 00:00:00, Sys 0 00:00:00  -  Total Local Usage
	14643  -  Run Bytes Sent By Job
	23421056  -  Run Bytes Received By Job
	14643  -  Total Bytes Sent By Job
	23421056  -  Total Bytes Received By Job
	Partitionable Resources :    Usage  Request Allocated 
	   Cpus                 :     1.00        1         1 
	   Disk (KB)            : 25000    15728640  17057807 
	   Memory (MB)          :   173        2048      2100 
...
